^D:\UNIVERSITAT\UPC\CUARTO\VJ\2D-LOSGOONIES\2DGAME\LOSGOONIES\LOSGOONIES\ENEMY.CPP|D:\UNIVERSITAT\UPC\CUARTO\VJ\2D-LOSGOONIES\2DGAME\LOSGOONIES\LOSGOONIES\GAME.CPP|D:\UNIVERSITAT\UPC\CUARTO\VJ\2D-LOSGOONIES\2DGAME\LOSGOONIES\LOSGOONIES\MAIN.CPP|D:\UNIVERSITAT\UPC\CUARTO\VJ\2D-LOSGOONIES\2DGAME\LOSGOONIES\LOSGOONIES\PLAYER.CPP|D:\UNIVERSITAT\UPC\CUARTO\VJ\2D-LOSGOONIES\2DGAME\LOSGOONIES\LOSGOONIES\SCENE.CPP|D:\UNIVERSITAT\UPC\CUARTO\VJ\2D-LOSGOONIES\2DGAME\LOSGOONIES\LOSGOONIES\SCREEN.CPP|D:\UNIVERSITAT\UPC\CUARTO\VJ\2D-LOSGOONIES\2DGAME\LOSGOONIES\LOSGOONIES\SHADER.CPP|D:\UNIVERSITAT\UPC\CUARTO\VJ\2D-LOSGOONIES\2DGAME\LOSGOONIES\LOSGOONIES\SHADERPROGRAM.CPP|D:\UNIVERSITAT\UPC\CUARTO\VJ\2D-LOSGOONIES\2DGAME\LOSGOONIES\LOSGOONIES\SPRITE.CPP|D:\UNIVERSITAT\UPC\CUARTO\VJ\2D-LOSGOONIES\2DGAME\LOSGOONIES\LOSGOONIES\TEXTURE.CPP|D:\UNIVERSITAT\UPC\CUARTO\VJ\2D-LOSGOONIES\2DGAME\LOSGOONIES\LOSGOONIES\TILEMAP.CPP
D:\UNIVERSITAT\UPC\CUARTO\VJ\2D-LOSGOONIES\2DGAME\LOSGOONIES\LOSGOONIES\DEBUG\VC142.PDB
D:\UNIVERSITAT\UPC\CUARTO\VJ\2D-LOSGOONIES\2DGAME\LOSGOONIES\LOSGOONIES\DEBUG\VC142.IDB
D:\UNIVERSITAT\UPC\CUARTO\VJ\2D-LOSGOONIES\2DGAME\LOSGOONIES\LOSGOONIES\DEBUG\TILEMAP.OBJ
D:\UNIVERSITAT\UPC\CUARTO\VJ\2D-LOSGOONIES\2DGAME\LOSGOONIES\LOSGOONIES\DEBUG\TEXTURE.OBJ
D:\UNIVERSITAT\UPC\CUARTO\VJ\2D-LOSGOONIES\2DGAME\LOSGOONIES\LOSGOONIES\DEBUG\SPRITE.OBJ
D:\UNIVERSITAT\UPC\CUARTO\VJ\2D-LOSGOONIES\2DGAME\LOSGOONIES\LOSGOONIES\DEBUG\SHADERPROGRAM.OBJ
D:\UNIVERSITAT\UPC\CUARTO\VJ\2D-LOSGOONIES\2DGAME\LOSGOONIES\LOSGOONIES\DEBUG\SHADER.OBJ
D:\UNIVERSITAT\UPC\CUARTO\VJ\2D-LOSGOONIES\2DGAME\LOSGOONIES\LOSGOONIES\DEBUG\SCREEN.OBJ
D:\UNIVERSITAT\UPC\CUARTO\VJ\2D-LOSGOONIES\2DGAME\LOSGOONIES\LOSGOONIES\DEBUG\SCENE.OBJ
D:\UNIVERSITAT\UPC\CUARTO\VJ\2D-LOSGOONIES\2DGAME\LOSGOONIES\LOSGOONIES\DEBUG\PLAYER.OBJ
D:\UNIVERSITAT\UPC\CUARTO\VJ\2D-LOSGOONIES\2DGAME\LOSGOONIES\LOSGOONIES\DEBUG\MAIN.OBJ
D:\UNIVERSITAT\UPC\CUARTO\VJ\2D-LOSGOONIES\2DGAME\LOSGOONIES\LOSGOONIES\DEBUG\GAME.OBJ
D:\UNIVERSITAT\UPC\CUARTO\VJ\2D-LOSGOONIES\2DGAME\LOSGOONIES\LOSGOONIES\DEBUG\ENEMY.OBJ
^D:\UNIVERSITAT\UPC\CUARTO\VJ\2D-LOSGOONIES\2DGAME\LOSGOONIES\LOSGOONIES\SHADER.CPP
D:\UNIVERSITAT\UPC\CUARTO\VJ\2D-LOSGOONIES\2DGAME\LOSGOONIES\LOSGOONIES\DEBUG\VC142.PDB
^D:\UNIVERSITAT\UPC\CUARTO\VJ\2D-LOSGOONIES\2DGAME\LOSGOONIES\LOSGOONIES\SHADERPROGRAM.CPP
D:\UNIVERSITAT\UPC\CUARTO\VJ\2D-LOSGOONIES\2DGAME\LOSGOONIES\LOSGOONIES\DEBUG\VC142.PDB
^D:\UNIVERSITAT\UPC\CUARTO\VJ\2D-LOSGOONIES\2DGAME\LOSGOONIES\LOSGOONIES\SPRITE.CPP
D:\UNIVERSITAT\UPC\CUARTO\VJ\2D-LOSGOONIES\2DGAME\LOSGOONIES\LOSGOONIES\DEBUG\VC142.PDB
^D:\UNIVERSITAT\UPC\CUARTO\VJ\2D-LOSGOONIES\2DGAME\LOSGOONIES\LOSGOONIES\TEXTURE.CPP
D:\UNIVERSITAT\UPC\CUARTO\VJ\2D-LOSGOONIES\2DGAME\LOSGOONIES\LOSGOONIES\DEBUG\VC142.PDB
^D:\UNIVERSITAT\UPC\CUARTO\VJ\2D-LOSGOONIES\2DGAME\LOSGOONIES\LOSGOONIES\GAME.CPP|D:\UNIVERSITAT\UPC\CUARTO\VJ\2D-LOSGOONIES\2DGAME\LOSGOONIES\LOSGOONIES\MAIN.CPP|D:\UNIVERSITAT\UPC\CUARTO\VJ\2D-LOSGOONIES\2DGAME\LOSGOONIES\LOSGOONIES\PLAYER.CPP|D:\UNIVERSITAT\UPC\CUARTO\VJ\2D-LOSGOONIES\2DGAME\LOSGOONIES\LOSGOONIES\SCENE.CPP
D:\UNIVERSITAT\UPC\CUARTO\VJ\2D-LOSGOONIES\2DGAME\LOSGOONIES\LOSGOONIES\DEBUG\VC142.PDB
D:\UNIVERSITAT\UPC\CUARTO\VJ\2D-LOSGOONIES\2DGAME\LOSGOONIES\LOSGOONIES\DEBUG\VC142.IDB
D:\UNIVERSITAT\UPC\CUARTO\VJ\2D-LOSGOONIES\2DGAME\LOSGOONIES\LOSGOONIES\DEBUG\MAIN.OBJ
D:\UNIVERSITAT\UPC\CUARTO\VJ\2D-LOSGOONIES\2DGAME\LOSGOONIES\LOSGOONIES\DEBUG\SCENE.OBJ
D:\UNIVERSITAT\UPC\CUARTO\VJ\2D-LOSGOONIES\2DGAME\LOSGOONIES\LOSGOONIES\DEBUG\PLAYER.OBJ
D:\UNIVERSITAT\UPC\CUARTO\VJ\2D-LOSGOONIES\2DGAME\LOSGOONIES\LOSGOONIES\DEBUG\GAME.OBJ
^D:\UNIVERSITAT\UPC\CUARTO\VJ\2D-LOSGOONIES\2DGAME\LOSGOONIES\LOSGOONIES\GAME.CPP|D:\UNIVERSITAT\UPC\CUARTO\VJ\2D-LOSGOONIES\2DGAME\LOSGOONIES\LOSGOONIES\MAIN.CPP|D:\UNIVERSITAT\UPC\CUARTO\VJ\2D-LOSGOONIES\2DGAME\LOSGOONIES\LOSGOONIES\PLAYER.CPP|D:\UNIVERSITAT\UPC\CUARTO\VJ\2D-LOSGOONIES\2DGAME\LOSGOONIES\LOSGOONIES\SCENE.CPP|D:\UNIVERSITAT\UPC\CUARTO\VJ\2D-LOSGOONIES\2DGAME\LOSGOONIES\LOSGOONIES\TILEMAP.CPP
D:\UNIVERSITAT\UPC\CUARTO\VJ\2D-LOSGOONIES\2DGAME\LOSGOONIES\LOSGOONIES\DEBUG\VC142.PDB
D:\UNIVERSITAT\UPC\CUARTO\VJ\2D-LOSGOONIES\2DGAME\LOSGOONIES\LOSGOONIES\DEBUG\VC142.IDB
D:\UNIVERSITAT\UPC\CUARTO\VJ\2D-LOSGOONIES\2DGAME\LOSGOONIES\LOSGOONIES\DEBUG\TILEMAP.OBJ
D:\UNIVERSITAT\UPC\CUARTO\VJ\2D-LOSGOONIES\2DGAME\LOSGOONIES\LOSGOONIES\DEBUG\SCENE.OBJ
D:\UNIVERSITAT\UPC\CUARTO\VJ\2D-LOSGOONIES\2DGAME\LOSGOONIES\LOSGOONIES\DEBUG\PLAYER.OBJ
D:\UNIVERSITAT\UPC\CUARTO\VJ\2D-LOSGOONIES\2DGAME\LOSGOONIES\LOSGOONIES\DEBUG\MAIN.OBJ
D:\UNIVERSITAT\UPC\CUARTO\VJ\2D-LOSGOONIES\2DGAME\LOSGOONIES\LOSGOONIES\DEBUG\GAME.OBJ
^D:\UNIVERSITAT\UPC\CUARTO\VJ\2D-LOSGOONIES\2DGAME\LOSGOONIES\LOSGOONIES\MAIN.CPP|D:\UNIVERSITAT\UPC\CUARTO\VJ\2D-LOSGOONIES\2DGAME\LOSGOONIES\LOSGOONIES\PLAYER.CPP|D:\UNIVERSITAT\UPC\CUARTO\VJ\2D-LOSGOONIES\2DGAME\LOSGOONIES\LOSGOONIES\SCENE.CPP
D:\UNIVERSITAT\UPC\CUARTO\VJ\2D-LOSGOONIES\2DGAME\LOSGOONIES\LOSGOONIES\DEBUG\VC142.PDB
D:\UNIVERSITAT\UPC\CUARTO\VJ\2D-LOSGOONIES\2DGAME\LOSGOONIES\LOSGOONIES\DEBUG\VC142.IDB
D:\UNIVERSITAT\UPC\CUARTO\VJ\2D-LOSGOONIES\2DGAME\LOSGOONIES\LOSGOONIES\DEBUG\SCENE.OBJ
D:\UNIVERSITAT\UPC\CUARTO\VJ\2D-LOSGOONIES\2DGAME\LOSGOONIES\LOSGOONIES\DEBUG\PLAYER.OBJ
D:\UNIVERSITAT\UPC\CUARTO\VJ\2D-LOSGOONIES\2DGAME\LOSGOONIES\LOSGOONIES\DEBUG\MAIN.OBJ
^D:\UNIVERSITAT\UPC\CUARTO\VJ\2D-LOSGOONIES\2DGAME\LOSGOONIES\LOSGOONIES\ENEMY.CPP|D:\UNIVERSITAT\UPC\CUARTO\VJ\2D-LOSGOONIES\2DGAME\LOSGOONIES\LOSGOONIES\GAME.CPP|D:\UNIVERSITAT\UPC\CUARTO\VJ\2D-LOSGOONIES\2DGAME\LOSGOONIES\LOSGOONIES\MAIN.CPP|D:\UNIVERSITAT\UPC\CUARTO\VJ\2D-LOSGOONIES\2DGAME\LOSGOONIES\LOSGOONIES\PLAYER.CPP|D:\UNIVERSITAT\UPC\CUARTO\VJ\2D-LOSGOONIES\2DGAME\LOSGOONIES\LOSGOONIES\SCENE.CPP|D:\UNIVERSITAT\UPC\CUARTO\VJ\2D-LOSGOONIES\2DGAME\LOSGOONIES\LOSGOONIES\SCREEN.CPP|D:\UNIVERSITAT\UPC\CUARTO\VJ\2D-LOSGOONIES\2DGAME\LOSGOONIES\LOSGOONIES\TILEMAP.CPP
D:\UNIVERSITAT\UPC\CUARTO\VJ\2D-LOSGOONIES\2DGAME\LOSGOONIES\LOSGOONIES\DEBUG\VC142.PDB
D:\UNIVERSITAT\UPC\CUARTO\VJ\2D-LOSGOONIES\2DGAME\LOSGOONIES\LOSGOONIES\DEBUG\VC142.IDB
D:\UNIVERSITAT\UPC\CUARTO\VJ\2D-LOSGOONIES\2DGAME\LOSGOONIES\LOSGOONIES\DEBUG\MAIN.OBJ
D:\UNIVERSITAT\UPC\CUARTO\VJ\2D-LOSGOONIES\2DGAME\LOSGOONIES\LOSGOONIES\DEBUG\TILEMAP.OBJ
D:\UNIVERSITAT\UPC\CUARTO\VJ\2D-LOSGOONIES\2DGAME\LOSGOONIES\LOSGOONIES\DEBUG\SCREEN.OBJ
D:\UNIVERSITAT\UPC\CUARTO\VJ\2D-LOSGOONIES\2DGAME\LOSGOONIES\LOSGOONIES\DEBUG\SCENE.OBJ
D:\UNIVERSITAT\UPC\CUARTO\VJ\2D-LOSGOONIES\2DGAME\LOSGOONIES\LOSGOONIES\DEBUG\PLAYER.OBJ
D:\UNIVERSITAT\UPC\CUARTO\VJ\2D-LOSGOONIES\2DGAME\LOSGOONIES\LOSGOONIES\DEBUG\GAME.OBJ
D:\UNIVERSITAT\UPC\CUARTO\VJ\2D-LOSGOONIES\2DGAME\LOSGOONIES\LOSGOONIES\DEBUG\ENEMY.OBJ
^D:\UNIVERSITAT\UPC\CUARTO\VJ\2D-LOSGOONIES\2DGAME\LOSGOONIES\LOSGOONIES\GAME.CPP|D:\UNIVERSITAT\UPC\CUARTO\VJ\2D-LOSGOONIES\2DGAME\LOSGOONIES\LOSGOONIES\MAIN.CPP|D:\UNIVERSITAT\UPC\CUARTO\VJ\2D-LOSGOONIES\2DGAME\LOSGOONIES\LOSGOONIES\PLAYER.CPP|D:\UNIVERSITAT\UPC\CUARTO\VJ\2D-LOSGOONIES\2DGAME\LOSGOONIES\LOSGOONIES\SCENE.CPP|D:\UNIVERSITAT\UPC\CUARTO\VJ\2D-LOSGOONIES\2DGAME\LOSGOONIES\LOSGOONIES\SCREEN.CPP|D:\UNIVERSITAT\UPC\CUARTO\VJ\2D-LOSGOONIES\2DGAME\LOSGOONIES\LOSGOONIES\TILEMAP.CPP
D:\UNIVERSITAT\UPC\CUARTO\VJ\2D-LOSGOONIES\2DGAME\LOSGOONIES\LOSGOONIES\DEBUG\VC142.PDB
D:\UNIVERSITAT\UPC\CUARTO\VJ\2D-LOSGOONIES\2DGAME\LOSGOONIES\LOSGOONIES\DEBUG\VC142.IDB
D:\UNIVERSITAT\UPC\CUARTO\VJ\2D-LOSGOONIES\2DGAME\LOSGOONIES\LOSGOONIES\DEBUG\MAIN.OBJ
D:\UNIVERSITAT\UPC\CUARTO\VJ\2D-LOSGOONIES\2DGAME\LOSGOONIES\LOSGOONIES\DEBUG\TILEMAP.OBJ
D:\UNIVERSITAT\UPC\CUARTO\VJ\2D-LOSGOONIES\2DGAME\LOSGOONIES\LOSGOONIES\DEBUG\SCREEN.OBJ
D:\UNIVERSITAT\UPC\CUARTO\VJ\2D-LOSGOONIES\2DGAME\LOSGOONIES\LOSGOONIES\DEBUG\SCENE.OBJ
D:\UNIVERSITAT\UPC\CUARTO\VJ\2D-LOSGOONIES\2DGAME\LOSGOONIES\LOSGOONIES\DEBUG\PLAYER.OBJ
D:\UNIVERSITAT\UPC\CUARTO\VJ\2D-LOSGOONIES\2DGAME\LOSGOONIES\LOSGOONIES\DEBUG\GAME.OBJ
^D:\UNIVERSITAT\UPC\CUARTO\VJ\2D-LOSGOONIES\2DGAME\LOSGOONIES\LOSGOONIES\DOOR.CPP|D:\UNIVERSITAT\UPC\CUARTO\VJ\2D-LOSGOONIES\2DGAME\LOSGOONIES\LOSGOONIES\ENEMY.CPP|D:\UNIVERSITAT\UPC\CUARTO\VJ\2D-LOSGOONIES\2DGAME\LOSGOONIES\LOSGOONIES\GAME.CPP|D:\UNIVERSITAT\UPC\CUARTO\VJ\2D-LOSGOONIES\2DGAME\LOSGOONIES\LOSGOONIES\MAIN.CPP|D:\UNIVERSITAT\UPC\CUARTO\VJ\2D-LOSGOONIES\2DGAME\LOSGOONIES\LOSGOONIES\PLAYER.CPP|D:\UNIVERSITAT\UPC\CUARTO\VJ\2D-LOSGOONIES\2DGAME\LOSGOONIES\LOSGOONIES\SCENE.CPP|D:\UNIVERSITAT\UPC\CUARTO\VJ\2D-LOSGOONIES\2DGAME\LOSGOONIES\LOSGOONIES\SCREEN.CPP|D:\UNIVERSITAT\UPC\CUARTO\VJ\2D-LOSGOONIES\2DGAME\LOSGOONIES\LOSGOONIES\TILEMAP.CPP
D:\UNIVERSITAT\UPC\CUARTO\VJ\2D-LOSGOONIES\2DGAME\LOSGOONIES\LOSGOONIES\DEBUG\VC142.PDB
D:\UNIVERSITAT\UPC\CUARTO\VJ\2D-LOSGOONIES\2DGAME\LOSGOONIES\LOSGOONIES\DEBUG\VC142.IDB
D:\UNIVERSITAT\UPC\CUARTO\VJ\2D-LOSGOONIES\2DGAME\LOSGOONIES\LOSGOONIES\DEBUG\MAIN.OBJ
D:\UNIVERSITAT\UPC\CUARTO\VJ\2D-LOSGOONIES\2DGAME\LOSGOONIES\LOSGOONIES\DEBUG\TILEMAP.OBJ
D:\UNIVERSITAT\UPC\CUARTO\VJ\2D-LOSGOONIES\2DGAME\LOSGOONIES\LOSGOONIES\DEBUG\SCREEN.OBJ
D:\UNIVERSITAT\UPC\CUARTO\VJ\2D-LOSGOONIES\2DGAME\LOSGOONIES\LOSGOONIES\DEBUG\SCENE.OBJ
D:\UNIVERSITAT\UPC\CUARTO\VJ\2D-LOSGOONIES\2DGAME\LOSGOONIES\LOSGOONIES\DEBUG\PLAYER.OBJ
D:\UNIVERSITAT\UPC\CUARTO\VJ\2D-LOSGOONIES\2DGAME\LOSGOONIES\LOSGOONIES\DEBUG\GAME.OBJ
D:\UNIVERSITAT\UPC\CUARTO\VJ\2D-LOSGOONIES\2DGAME\LOSGOONIES\LOSGOONIES\DEBUG\ENEMY.OBJ
D:\UNIVERSITAT\UPC\CUARTO\VJ\2D-LOSGOONIES\2DGAME\LOSGOONIES\LOSGOONIES\DEBUG\DOOR.OBJ
^D:\UNIVERSITAT\UPC\CUARTO\VJ\2D-LOSGOONIES\2DGAME\LOSGOONIES\LOSGOONIES\ENEMY.CPP
D:\UNIVERSITAT\UPC\CUARTO\VJ\2D-LOSGOONIES\2DGAME\LOSGOONIES\LOSGOONIES\DEBUG\VC142.PDB
^D:\UNIVERSITAT\UPC\CUARTO\VJ\2D-LOSGOONIES\2DGAME\LOSGOONIES\LOSGOONIES\GAME.CPP|D:\UNIVERSITAT\UPC\CUARTO\VJ\2D-LOSGOONIES\2DGAME\LOSGOONIES\LOSGOONIES\KEY.CPP|D:\UNIVERSITAT\UPC\CUARTO\VJ\2D-LOSGOONIES\2DGAME\LOSGOONIES\LOSGOONIES\MAIN.CPP|D:\UNIVERSITAT\UPC\CUARTO\VJ\2D-LOSGOONIES\2DGAME\LOSGOONIES\LOSGOONIES\PLAYER.CPP|D:\UNIVERSITAT\UPC\CUARTO\VJ\2D-LOSGOONIES\2DGAME\LOSGOONIES\LOSGOONIES\SCENE.CPP|D:\UNIVERSITAT\UPC\CUARTO\VJ\2D-LOSGOONIES\2DGAME\LOSGOONIES\LOSGOONIES\SCREEN.CPP|D:\UNIVERSITAT\UPC\CUARTO\VJ\2D-LOSGOONIES\2DGAME\LOSGOONIES\LOSGOONIES\TILEMAP.CPP
D:\UNIVERSITAT\UPC\CUARTO\VJ\2D-LOSGOONIES\2DGAME\LOSGOONIES\LOSGOONIES\DEBUG\VC142.PDB
D:\UNIVERSITAT\UPC\CUARTO\VJ\2D-LOSGOONIES\2DGAME\LOSGOONIES\LOSGOONIES\DEBUG\VC142.IDB
D:\UNIVERSITAT\UPC\CUARTO\VJ\2D-LOSGOONIES\2DGAME\LOSGOONIES\LOSGOONIES\DEBUG\MAIN.OBJ
D:\UNIVERSITAT\UPC\CUARTO\VJ\2D-LOSGOONIES\2DGAME\LOSGOONIES\LOSGOONIES\DEBUG\SCREEN.OBJ
D:\UNIVERSITAT\UPC\CUARTO\VJ\2D-LOSGOONIES\2DGAME\LOSGOONIES\LOSGOONIES\DEBUG\SCENE.OBJ
D:\UNIVERSITAT\UPC\CUARTO\VJ\2D-LOSGOONIES\2DGAME\LOSGOONIES\LOSGOONIES\DEBUG\PLAYER.OBJ
D:\UNIVERSITAT\UPC\CUARTO\VJ\2D-LOSGOONIES\2DGAME\LOSGOONIES\LOSGOONIES\DEBUG\KEY.OBJ
D:\UNIVERSITAT\UPC\CUARTO\VJ\2D-LOSGOONIES\2DGAME\LOSGOONIES\LOSGOONIES\DEBUG\GAME.OBJ
^D:\UNIVERSITAT\UPC\CUARTO\VJ\2D-LOSGOONIES\2DGAME\LOSGOONIES\LOSGOONIES\MAIN.CPP|D:\UNIVERSITAT\UPC\CUARTO\VJ\2D-LOSGOONIES\2DGAME\LOSGOONIES\LOSGOONIES\TILEMAP.CPP
D:\UNIVERSITAT\UPC\CUARTO\VJ\2D-LOSGOONIES\2DGAME\LOSGOONIES\LOSGOONIES\DEBUG\VC142.PDB
D:\UNIVERSITAT\UPC\CUARTO\VJ\2D-LOSGOONIES\2DGAME\LOSGOONIES\LOSGOONIES\DEBUG\VC142.IDB
D:\UNIVERSITAT\UPC\CUARTO\VJ\2D-LOSGOONIES\2DGAME\LOSGOONIES\LOSGOONIES\DEBUG\TILEMAP.OBJ
D:\UNIVERSITAT\UPC\CUARTO\VJ\2D-LOSGOONIES\2DGAME\LOSGOONIES\LOSGOONIES\DEBUG\MAIN.OBJ
^D:\UNIVERSITAT\UPC\CUARTO\VJ\2D-LOSGOONIES\2DGAME\LOSGOONIES\LOSGOONIES\KEY.CPP|D:\UNIVERSITAT\UPC\CUARTO\VJ\2D-LOSGOONIES\2DGAME\LOSGOONIES\LOSGOONIES\SCREEN.CPP
D:\UNIVERSITAT\UPC\CUARTO\VJ\2D-LOSGOONIES\2DGAME\LOSGOONIES\LOSGOONIES\DEBUG\VC142.PDB
D:\UNIVERSITAT\UPC\CUARTO\VJ\2D-LOSGOONIES\2DGAME\LOSGOONIES\LOSGOONIES\DEBUG\VC142.IDB
D:\UNIVERSITAT\UPC\CUARTO\VJ\2D-LOSGOONIES\2DGAME\LOSGOONIES\LOSGOONIES\DEBUG\SCREEN.OBJ
D:\UNIVERSITAT\UPC\CUARTO\VJ\2D-LOSGOONIES\2DGAME\LOSGOONIES\LOSGOONIES\DEBUG\KEY.OBJ
^D:\UNIVERSITAT\UPC\CUARTO\VJ\2D-LOSGOONIES\2DGAME\LOSGOONIES\LOSGOONIES\KEY.CPP
D:\UNIVERSITAT\UPC\CUARTO\VJ\2D-LOSGOONIES\2DGAME\LOSGOONIES\LOSGOONIES\DEBUG\VC142.PDB
^D:\UNIVERSITAT\UPC\CUARTO\VJ\2D-LOSGOONIES\2DGAME\LOSGOONIES\LOSGOONIES\DOOR.CPP|D:\UNIVERSITAT\UPC\CUARTO\VJ\2D-LOSGOONIES\2DGAME\LOSGOONIES\LOSGOONIES\MAIN.CPP
D:\UNIVERSITAT\UPC\CUARTO\VJ\2D-LOSGOONIES\2DGAME\LOSGOONIES\LOSGOONIES\DEBUG\VC142.PDB
D:\UNIVERSITAT\UPC\CUARTO\VJ\2D-LOSGOONIES\2DGAME\LOSGOONIES\LOSGOONIES\DEBUG\VC142.IDB
D:\UNIVERSITAT\UPC\CUARTO\VJ\2D-LOSGOONIES\2DGAME\LOSGOONIES\LOSGOONIES\DEBUG\MAIN.OBJ
D:\UNIVERSITAT\UPC\CUARTO\VJ\2D-LOSGOONIES\2DGAME\LOSGOONIES\LOSGOONIES\DEBUG\DOOR.OBJ
^D:\UNIVERSITAT\UPC\CUARTO\VJ\2D-LOSGOONIES\2DGAME\LOSGOONIES\LOSGOONIES\DOOR.CPP|D:\UNIVERSITAT\UPC\CUARTO\VJ\2D-LOSGOONIES\2DGAME\LOSGOONIES\LOSGOONIES\SCREEN.CPP
D:\UNIVERSITAT\UPC\CUARTO\VJ\2D-LOSGOONIES\2DGAME\LOSGOONIES\LOSGOONIES\DEBUG\VC142.PDB
D:\UNIVERSITAT\UPC\CUARTO\VJ\2D-LOSGOONIES\2DGAME\LOSGOONIES\LOSGOONIES\DEBUG\VC142.IDB
D:\UNIVERSITAT\UPC\CUARTO\VJ\2D-LOSGOONIES\2DGAME\LOSGOONIES\LOSGOONIES\DEBUG\SCREEN.OBJ
D:\UNIVERSITAT\UPC\CUARTO\VJ\2D-LOSGOONIES\2DGAME\LOSGOONIES\LOSGOONIES\DEBUG\DOOR.OBJ
^D:\UNIVERSITAT\UPC\CUARTO\VJ\2D-LOSGOONIES\2DGAME\LOSGOONIES\LOSGOONIES\PLAYER.CPP|D:\UNIVERSITAT\UPC\CUARTO\VJ\2D-LOSGOONIES\2DGAME\LOSGOONIES\LOSGOONIES\SCREEN.CPP
D:\UNIVERSITAT\UPC\CUARTO\VJ\2D-LOSGOONIES\2DGAME\LOSGOONIES\LOSGOONIES\DEBUG\VC142.PDB
D:\UNIVERSITAT\UPC\CUARTO\VJ\2D-LOSGOONIES\2DGAME\LOSGOONIES\LOSGOONIES\DEBUG\VC142.IDB
D:\UNIVERSITAT\UPC\CUARTO\VJ\2D-LOSGOONIES\2DGAME\LOSGOONIES\LOSGOONIES\DEBUG\PLAYER.OBJ
^D:\UNIVERSITAT\UPC\CUARTO\VJ\2D-LOSGOONIES\2DGAME\LOSGOONIES\LOSGOONIES\DOOR.CPP|D:\UNIVERSITAT\UPC\CUARTO\VJ\2D-LOSGOONIES\2DGAME\LOSGOONIES\LOSGOONIES\GAME.CPP|D:\UNIVERSITAT\UPC\CUARTO\VJ\2D-LOSGOONIES\2DGAME\LOSGOONIES\LOSGOONIES\MAIN.CPP|D:\UNIVERSITAT\UPC\CUARTO\VJ\2D-LOSGOONIES\2DGAME\LOSGOONIES\LOSGOONIES\PLAYER.CPP|D:\UNIVERSITAT\UPC\CUARTO\VJ\2D-LOSGOONIES\2DGAME\LOSGOONIES\LOSGOONIES\SCENE.CPP|D:\UNIVERSITAT\UPC\CUARTO\VJ\2D-LOSGOONIES\2DGAME\LOSGOONIES\LOSGOONIES\SCREEN.CPP|D:\UNIVERSITAT\UPC\CUARTO\VJ\2D-LOSGOONIES\2DGAME\LOSGOONIES\LOSGOONIES\TILEMAP.CPP
D:\UNIVERSITAT\UPC\CUARTO\VJ\2D-LOSGOONIES\2DGAME\LOSGOONIES\LOSGOONIES\DEBUG\VC142.PDB
D:\UNIVERSITAT\UPC\CUARTO\VJ\2D-LOSGOONIES\2DGAME\LOSGOONIES\LOSGOONIES\DEBUG\VC142.IDB
D:\UNIVERSITAT\UPC\CUARTO\VJ\2D-LOSGOONIES\2DGAME\LOSGOONIES\LOSGOONIES\DEBUG\MAIN.OBJ
D:\UNIVERSITAT\UPC\CUARTO\VJ\2D-LOSGOONIES\2DGAME\LOSGOONIES\LOSGOONIES\DEBUG\TILEMAP.OBJ
D:\UNIVERSITAT\UPC\CUARTO\VJ\2D-LOSGOONIES\2DGAME\LOSGOONIES\LOSGOONIES\DEBUG\SCREEN.OBJ
D:\UNIVERSITAT\UPC\CUARTO\VJ\2D-LOSGOONIES\2DGAME\LOSGOONIES\LOSGOONIES\DEBUG\PLAYER.OBJ
D:\UNIVERSITAT\UPC\CUARTO\VJ\2D-LOSGOONIES\2DGAME\LOSGOONIES\LOSGOONIES\DEBUG\GAME.OBJ
D:\UNIVERSITAT\UPC\CUARTO\VJ\2D-LOSGOONIES\2DGAME\LOSGOONIES\LOSGOONIES\DEBUG\DOOR.OBJ
^D:\UNIVERSITAT\UPC\CUARTO\VJ\2D-LOSGOONIES\2DGAME\LOSGOONIES\LOSGOONIES\DOOR.CPP
D:\UNIVERSITAT\UPC\CUARTO\VJ\2D-LOSGOONIES\2DGAME\LOSGOONIES\LOSGOONIES\DEBUG\DOOR.OBJ
^D:\UNIVERSITAT\UPC\CUARTO\VJ\2D-LOSGOONIES\2DGAME\LOSGOONIES\LOSGOONIES\GAME.CPP
D:\UNIVERSITAT\UPC\CUARTO\VJ\2D-LOSGOONIES\2DGAME\LOSGOONIES\LOSGOONIES\DEBUG\GAME.OBJ
^D:\UNIVERSITAT\UPC\CUARTO\VJ\2D-LOSGOONIES\2DGAME\LOSGOONIES\LOSGOONIES\PLAYER.CPP
D:\UNIVERSITAT\UPC\CUARTO\VJ\2D-LOSGOONIES\2DGAME\LOSGOONIES\LOSGOONIES\DEBUG\PLAYER.OBJ
^D:\UNIVERSITAT\UPC\CUARTO\VJ\2D-LOSGOONIES\2DGAME\LOSGOONIES\LOSGOONIES\TILEMAP.CPP
D:\UNIVERSITAT\UPC\CUARTO\VJ\2D-LOSGOONIES\2DGAME\LOSGOONIES\LOSGOONIES\DEBUG\TILEMAP.OBJ
^D:\UNIVERSITAT\UPC\CUARTO\VJ\2D-LOSGOONIES\2DGAME\LOSGOONIES\LOSGOONIES\MAIN.CPP|D:\UNIVERSITAT\UPC\CUARTO\VJ\2D-LOSGOONIES\2DGAME\LOSGOONIES\LOSGOONIES\SCENE.CPP|D:\UNIVERSITAT\UPC\CUARTO\VJ\2D-LOSGOONIES\2DGAME\LOSGOONIES\LOSGOONIES\SCREEN.CPP
D:\UNIVERSITAT\UPC\CUARTO\VJ\2D-LOSGOONIES\2DGAME\LOSGOONIES\LOSGOONIES\DEBUG\VC142.PDB
D:\UNIVERSITAT\UPC\CUARTO\VJ\2D-LOSGOONIES\2DGAME\LOSGOONIES\LOSGOONIES\DEBUG\VC142.IDB
D:\UNIVERSITAT\UPC\CUARTO\VJ\2D-LOSGOONIES\2DGAME\LOSGOONIES\LOSGOONIES\DEBUG\SCREEN.OBJ
D:\UNIVERSITAT\UPC\CUARTO\VJ\2D-LOSGOONIES\2DGAME\LOSGOONIES\LOSGOONIES\DEBUG\SCENE.OBJ
D:\UNIVERSITAT\UPC\CUARTO\VJ\2D-LOSGOONIES\2DGAME\LOSGOONIES\LOSGOONIES\DEBUG\MAIN.OBJ
^D:\UNIVERSITAT\UPC\CUARTO\VJ\2D-LOSGOONIES\2DGAME\LOSGOONIES\LOSGOONIES\MAIN.CPP
D:\UNIVERSITAT\UPC\CUARTO\VJ\2D-LOSGOONIES\2DGAME\LOSGOONIES\LOSGOONIES\DEBUG\VC142.PDB
^D:\UNIVERSITAT\UPC\CUARTO\VJ\2D-LOSGOONIES\2DGAME\LOSGOONIES\LOSGOONIES\SCENE.CPP
D:\UNIVERSITAT\UPC\CUARTO\VJ\2D-LOSGOONIES\2DGAME\LOSGOONIES\LOSGOONIES\DEBUG\VC142.PDB
^D:\UNIVERSITAT\UPC\CUARTO\VJ\2D-LOSGOONIES\2DGAME\LOSGOONIES\LOSGOONIES\SCREEN.CPP
D:\UNIVERSITAT\UPC\CUARTO\VJ\2D-LOSGOONIES\2DGAME\LOSGOONIES\LOSGOONIES\DEBUG\VC142.PDB
^D:\UNIVERSITAT\UPC\CUARTO\VJ\LOSGOONIES\LOSGOONIES\2DGAME\LOSGOONIES\LOSGOONIES\DOOR.CPP|D:\UNIVERSITAT\UPC\CUARTO\VJ\LOSGOONIES\LOSGOONIES\2DGAME\LOSGOONIES\LOSGOONIES\ENEMY.CPP|D:\UNIVERSITAT\UPC\CUARTO\VJ\LOSGOONIES\LOSGOONIES\2DGAME\LOSGOONIES\LOSGOONIES\GAME.CPP|D:\UNIVERSITAT\UPC\CUARTO\VJ\LOSGOONIES\LOSGOONIES\2DGAME\LOSGOONIES\LOSGOONIES\KEY.CPP|D:\UNIVERSITAT\UPC\CUARTO\VJ\LOSGOONIES\LOSGOONIES\2DGAME\LOSGOONIES\LOSGOONIES\MAIN.CPP|D:\UNIVERSITAT\UPC\CUARTO\VJ\LOSGOONIES\LOSGOONIES\2DGAME\LOSGOONIES\LOSGOONIES\PLAYER.CPP|D:\UNIVERSITAT\UPC\CUARTO\VJ\LOSGOONIES\LOSGOONIES\2DGAME\LOSGOONIES\LOSGOONIES\SCENE.CPP|D:\UNIVERSITAT\UPC\CUARTO\VJ\LOSGOONIES\LOSGOONIES\2DGAME\LOSGOONIES\LOSGOONIES\SCREEN.CPP|D:\UNIVERSITAT\UPC\CUARTO\VJ\LOSGOONIES\LOSGOONIES\2DGAME\LOSGOONIES\LOSGOONIES\SHADER.CPP|D:\UNIVERSITAT\UPC\CUARTO\VJ\LOSGOONIES\LOSGOONIES\2DGAME\LOSGOONIES\LOSGOONIES\SHADERPROGRAM.CPP|D:\UNIVERSITAT\UPC\CUARTO\VJ\LOSGOONIES\LOSGOONIES\2DGAME\LOSGOONIES\LOSGOONIES\SPRITE.CPP|D:\UNIVERSITAT\UPC\CUARTO\VJ\LOSGOONIES\LOSGOONIES\2DGAME\LOSGOONIES\LOSGOONIES\TEXTURE.CPP|D:\UNIVERSITAT\UPC\CUARTO\VJ\LOSGOONIES\LOSGOONIES\2DGAME\LOSGOONIES\LOSGOONIES\TILEMAP.CPP
D:\UNIVERSITAT\UPC\CUARTO\VJ\LOSGOONIES\LOSGOONIES\2DGAME\LOSGOONIES\LOSGOONIES\DEBUG\VC142.PDB
D:\UNIVERSITAT\UPC\CUARTO\VJ\LOSGOONIES\LOSGOONIES\2DGAME\LOSGOONIES\LOSGOONIES\DEBUG\VC142.IDB
D:\UNIVERSITAT\UPC\CUARTO\VJ\LOSGOONIES\LOSGOONIES\2DGAME\LOSGOONIES\LOSGOONIES\DEBUG\TILEMAP.OBJ
D:\UNIVERSITAT\UPC\CUARTO\VJ\LOSGOONIES\LOSGOONIES\2DGAME\LOSGOONIES\LOSGOONIES\DEBUG\TEXTURE.OBJ
D:\UNIVERSITAT\UPC\CUARTO\VJ\LOSGOONIES\LOSGOONIES\2DGAME\LOSGOONIES\LOSGOONIES\DEBUG\SPRITE.OBJ
D:\UNIVERSITAT\UPC\CUARTO\VJ\LOSGOONIES\LOSGOONIES\2DGAME\LOSGOONIES\LOSGOONIES\DEBUG\SHADERPROGRAM.OBJ
D:\UNIVERSITAT\UPC\CUARTO\VJ\LOSGOONIES\LOSGOONIES\2DGAME\LOSGOONIES\LOSGOONIES\DEBUG\SHADER.OBJ
D:\UNIVERSITAT\UPC\CUARTO\VJ\LOSGOONIES\LOSGOONIES\2DGAME\LOSGOONIES\LOSGOONIES\DEBUG\SCREEN.OBJ
D:\UNIVERSITAT\UPC\CUARTO\VJ\LOSGOONIES\LOSGOONIES\2DGAME\LOSGOONIES\LOSGOONIES\DEBUG\SCENE.OBJ
D:\UNIVERSITAT\UPC\CUARTO\VJ\LOSGOONIES\LOSGOONIES\2DGAME\LOSGOONIES\LOSGOONIES\DEBUG\PLAYER.OBJ
D:\UNIVERSITAT\UPC\CUARTO\VJ\LOSGOONIES\LOSGOONIES\2DGAME\LOSGOONIES\LOSGOONIES\DEBUG\MAIN.OBJ
D:\UNIVERSITAT\UPC\CUARTO\VJ\LOSGOONIES\LOSGOONIES\2DGAME\LOSGOONIES\LOSGOONIES\DEBUG\KEY.OBJ
D:\UNIVERSITAT\UPC\CUARTO\VJ\LOSGOONIES\LOSGOONIES\2DGAME\LOSGOONIES\LOSGOONIES\DEBUG\GAME.OBJ
D:\UNIVERSITAT\UPC\CUARTO\VJ\LOSGOONIES\LOSGOONIES\2DGAME\LOSGOONIES\LOSGOONIES\DEBUG\ENEMY.OBJ
D:\UNIVERSITAT\UPC\CUARTO\VJ\LOSGOONIES\LOSGOONIES\2DGAME\LOSGOONIES\LOSGOONIES\DEBUG\DOOR.OBJ
^D:\UNIVERSITAT\UPC\CUARTO\VJ\LOSGOONIES\LOSGOONIES\2DGAME\LOSGOONIES\LOSGOONIES\ENEMY.CPP
D:\UNIVERSITAT\UPC\CUARTO\VJ\LOSGOONIES\LOSGOONIES\2DGAME\LOSGOONIES\LOSGOONIES\DEBUG\VC142.PDB
^D:\UNIVERSITAT\UPC\CUARTO\VJ\LOSGOONIES\LOSGOONIES\2DGAME\LOSGOONIES\LOSGOONIES\KEY.CPP
D:\UNIVERSITAT\UPC\CUARTO\VJ\LOSGOONIES\LOSGOONIES\2DGAME\LOSGOONIES\LOSGOONIES\DEBUG\VC142.PDB
^D:\UNIVERSITAT\UPC\CUARTO\VJ\LOSGOONIES\LOSGOONIES\2DGAME\LOSGOONIES\LOSGOONIES\SHADER.CPP
D:\UNIVERSITAT\UPC\CUARTO\VJ\LOSGOONIES\LOSGOONIES\2DGAME\LOSGOONIES\LOSGOONIES\DEBUG\VC142.PDB
^D:\UNIVERSITAT\UPC\CUARTO\VJ\LOSGOONIES\LOSGOONIES\2DGAME\LOSGOONIES\LOSGOONIES\SHADERPROGRAM.CPP
D:\UNIVERSITAT\UPC\CUARTO\VJ\LOSGOONIES\LOSGOONIES\2DGAME\LOSGOONIES\LOSGOONIES\DEBUG\VC142.PDB
^D:\UNIVERSITAT\UPC\CUARTO\VJ\LOSGOONIES\LOSGOONIES\2DGAME\LOSGOONIES\LOSGOONIES\SPRITE.CPP
D:\UNIVERSITAT\UPC\CUARTO\VJ\LOSGOONIES\LOSGOONIES\2DGAME\LOSGOONIES\LOSGOONIES\DEBUG\VC142.PDB
^D:\UNIVERSITAT\UPC\CUARTO\VJ\LOSGOONIES\LOSGOONIES\2DGAME\LOSGOONIES\LOSGOONIES\TEXTURE.CPP
D:\UNIVERSITAT\UPC\CUARTO\VJ\LOSGOONIES\LOSGOONIES\2DGAME\LOSGOONIES\LOSGOONIES\DEBUG\VC142.PDB
^D:\UNIVERSITAT\UPC\CUARTO\VJ\LOSGOONIES\LOSGOONIES\2DGAME\LOSGOONIES\LOSGOONIES\MAIN.CPP|D:\UNIVERSITAT\UPC\CUARTO\VJ\LOSGOONIES\LOSGOONIES\2DGAME\LOSGOONIES\LOSGOONIES\PLAYER.CPP|D:\UNIVERSITAT\UPC\CUARTO\VJ\LOSGOONIES\LOSGOONIES\2DGAME\LOSGOONIES\LOSGOONIES\SCENE.CPP
D:\UNIVERSITAT\UPC\CUARTO\VJ\LOSGOONIES\LOSGOONIES\2DGAME\LOSGOONIES\LOSGOONIES\DEBUG\VC142.PDB
D:\UNIVERSITAT\UPC\CUARTO\VJ\LOSGOONIES\LOSGOONIES\2DGAME\LOSGOONIES\LOSGOONIES\DEBUG\VC142.IDB
D:\UNIVERSITAT\UPC\CUARTO\VJ\LOSGOONIES\LOSGOONIES\2DGAME\LOSGOONIES\LOSGOONIES\DEBUG\SCENE.OBJ
D:\UNIVERSITAT\UPC\CUARTO\VJ\LOSGOONIES\LOSGOONIES\2DGAME\LOSGOONIES\LOSGOONIES\DEBUG\PLAYER.OBJ
D:\UNIVERSITAT\UPC\CUARTO\VJ\LOSGOONIES\LOSGOONIES\2DGAME\LOSGOONIES\LOSGOONIES\DEBUG\MAIN.OBJ
^D:\UNIVERSITAT\UPC\CUARTO\VJ\LOSGOONIES\LOSGOONIES\2DGAME\LOSGOONIES\LOSGOONIES\DOOR.CPP|D:\UNIVERSITAT\UPC\CUARTO\VJ\LOSGOONIES\LOSGOONIES\2DGAME\LOSGOONIES\LOSGOONIES\GAME.CPP|D:\UNIVERSITAT\UPC\CUARTO\VJ\LOSGOONIES\LOSGOONIES\2DGAME\LOSGOONIES\LOSGOONIES\MAIN.CPP|D:\UNIVERSITAT\UPC\CUARTO\VJ\LOSGOONIES\LOSGOONIES\2DGAME\LOSGOONIES\LOSGOONIES\PLAYER.CPP|D:\UNIVERSITAT\UPC\CUARTO\VJ\LOSGOONIES\LOSGOONIES\2DGAME\LOSGOONIES\LOSGOONIES\SCENE.CPP|D:\UNIVERSITAT\UPC\CUARTO\VJ\LOSGOONIES\LOSGOONIES\2DGAME\LOSGOONIES\LOSGOONIES\SCREEN.CPP|D:\UNIVERSITAT\UPC\CUARTO\VJ\LOSGOONIES\LOSGOONIES\2DGAME\LOSGOONIES\LOSGOONIES\TILEMAP.CPP
D:\UNIVERSITAT\UPC\CUARTO\VJ\LOSGOONIES\LOSGOONIES\2DGAME\LOSGOONIES\LOSGOONIES\DEBUG\VC142.PDB
D:\UNIVERSITAT\UPC\CUARTO\VJ\LOSGOONIES\LOSGOONIES\2DGAME\LOSGOONIES\LOSGOONIES\DEBUG\VC142.IDB
D:\UNIVERSITAT\UPC\CUARTO\VJ\LOSGOONIES\LOSGOONIES\2DGAME\LOSGOONIES\LOSGOONIES\DEBUG\MAIN.OBJ
D:\UNIVERSITAT\UPC\CUARTO\VJ\LOSGOONIES\LOSGOONIES\2DGAME\LOSGOONIES\LOSGOONIES\DEBUG\TILEMAP.OBJ
D:\UNIVERSITAT\UPC\CUARTO\VJ\LOSGOONIES\LOSGOONIES\2DGAME\LOSGOONIES\LOSGOONIES\DEBUG\SCREEN.OBJ
D:\UNIVERSITAT\UPC\CUARTO\VJ\LOSGOONIES\LOSGOONIES\2DGAME\LOSGOONIES\LOSGOONIES\DEBUG\SCENE.OBJ
D:\UNIVERSITAT\UPC\CUARTO\VJ\LOSGOONIES\LOSGOONIES\2DGAME\LOSGOONIES\LOSGOONIES\DEBUG\PLAYER.OBJ
D:\UNIVERSITAT\UPC\CUARTO\VJ\LOSGOONIES\LOSGOONIES\2DGAME\LOSGOONIES\LOSGOONIES\DEBUG\GAME.OBJ
D:\UNIVERSITAT\UPC\CUARTO\VJ\LOSGOONIES\LOSGOONIES\2DGAME\LOSGOONIES\LOSGOONIES\DEBUG\DOOR.OBJ
^D:\UNIVERSITAT\UPC\CUARTO\VJ\LOSGOONIES\LOSGOONIES\2DGAME\LOSGOONIES\LOSGOONIES\GAME.CPP|D:\UNIVERSITAT\UPC\CUARTO\VJ\LOSGOONIES\LOSGOONIES\2DGAME\LOSGOONIES\LOSGOONIES\JAR.CPP|D:\UNIVERSITAT\UPC\CUARTO\VJ\LOSGOONIES\LOSGOONIES\2DGAME\LOSGOONIES\LOSGOONIES\MAIN.CPP|D:\UNIVERSITAT\UPC\CUARTO\VJ\LOSGOONIES\LOSGOONIES\2DGAME\LOSGOONIES\LOSGOONIES\PLAYER.CPP|D:\UNIVERSITAT\UPC\CUARTO\VJ\LOSGOONIES\LOSGOONIES\2DGAME\LOSGOONIES\LOSGOONIES\SCENE.CPP|D:\UNIVERSITAT\UPC\CUARTO\VJ\LOSGOONIES\LOSGOONIES\2DGAME\LOSGOONIES\LOSGOONIES\SCREEN.CPP|D:\UNIVERSITAT\UPC\CUARTO\VJ\LOSGOONIES\LOSGOONIES\2DGAME\LOSGOONIES\LOSGOONIES\TILEMAP.CPP
D:\UNIVERSITAT\UPC\CUARTO\VJ\LOSGOONIES\LOSGOONIES\2DGAME\LOSGOONIES\LOSGOONIES\DEBUG\VC142.PDB
D:\UNIVERSITAT\UPC\CUARTO\VJ\LOSGOONIES\LOSGOONIES\2DGAME\LOSGOONIES\LOSGOONIES\DEBUG\VC142.IDB
D:\UNIVERSITAT\UPC\CUARTO\VJ\LOSGOONIES\LOSGOONIES\2DGAME\LOSGOONIES\LOSGOONIES\DEBUG\TILEMAP.OBJ
D:\UNIVERSITAT\UPC\CUARTO\VJ\LOSGOONIES\LOSGOONIES\2DGAME\LOSGOONIES\LOSGOONIES\DEBUG\SCREEN.OBJ
D:\UNIVERSITAT\UPC\CUARTO\VJ\LOSGOONIES\LOSGOONIES\2DGAME\LOSGOONIES\LOSGOONIES\DEBUG\SCENE.OBJ
D:\UNIVERSITAT\UPC\CUARTO\VJ\LOSGOONIES\LOSGOONIES\2DGAME\LOSGOONIES\LOSGOONIES\DEBUG\PLAYER.OBJ
D:\UNIVERSITAT\UPC\CUARTO\VJ\LOSGOONIES\LOSGOONIES\2DGAME\LOSGOONIES\LOSGOONIES\DEBUG\MAIN.OBJ
D:\UNIVERSITAT\UPC\CUARTO\VJ\LOSGOONIES\LOSGOONIES\2DGAME\LOSGOONIES\LOSGOONIES\DEBUG\JAR.OBJ
D:\UNIVERSITAT\UPC\CUARTO\VJ\LOSGOONIES\LOSGOONIES\2DGAME\LOSGOONIES\LOSGOONIES\DEBUG\GAME.OBJ
^D:\UNIVERSITAT\UPC\CUARTO\VJ\LOSGOONIES\LOSGOONIES\2DGAME\LOSGOONIES\LOSGOONIES\JAR.CPP|D:\UNIVERSITAT\UPC\CUARTO\VJ\LOSGOONIES\LOSGOONIES\2DGAME\LOSGOONIES\LOSGOONIES\SCREEN.CPP
D:\UNIVERSITAT\UPC\CUARTO\VJ\LOSGOONIES\LOSGOONIES\2DGAME\LOSGOONIES\LOSGOONIES\DEBUG\VC142.PDB
D:\UNIVERSITAT\UPC\CUARTO\VJ\LOSGOONIES\LOSGOONIES\2DGAME\LOSGOONIES\LOSGOONIES\DEBUG\VC142.IDB
D:\UNIVERSITAT\UPC\CUARTO\VJ\LOSGOONIES\LOSGOONIES\2DGAME\LOSGOONIES\LOSGOONIES\DEBUG\SCREEN.OBJ
D:\UNIVERSITAT\UPC\CUARTO\VJ\LOSGOONIES\LOSGOONIES\2DGAME\LOSGOONIES\LOSGOONIES\DEBUG\JAR.OBJ
^D:\UNIVERSITAT\UPC\CUARTO\VJ\LOSGOONIES\LOSGOONIES\2DGAME\LOSGOONIES\LOSGOONIES\GAME.CPP|D:\UNIVERSITAT\UPC\CUARTO\VJ\LOSGOONIES\LOSGOONIES\2DGAME\LOSGOONIES\LOSGOONIES\MAIN.CPP|D:\UNIVERSITAT\UPC\CUARTO\VJ\LOSGOONIES\LOSGOONIES\2DGAME\LOSGOONIES\LOSGOONIES\PLAYER.CPP|D:\UNIVERSITAT\UPC\CUARTO\VJ\LOSGOONIES\LOSGOONIES\2DGAME\LOSGOONIES\LOSGOONIES\SCENE.CPP|D:\UNIVERSITAT\UPC\CUARTO\VJ\LOSGOONIES\LOSGOONIES\2DGAME\LOSGOONIES\LOSGOONIES\TILEMAP.CPP
D:\UNIVERSITAT\UPC\CUARTO\VJ\LOSGOONIES\LOSGOONIES\2DGAME\LOSGOONIES\LOSGOONIES\DEBUG\VC142.PDB
D:\UNIVERSITAT\UPC\CUARTO\VJ\LOSGOONIES\LOSGOONIES\2DGAME\LOSGOONIES\LOSGOONIES\DEBUG\VC142.IDB
D:\UNIVERSITAT\UPC\CUARTO\VJ\LOSGOONIES\LOSGOONIES\2DGAME\LOSGOONIES\LOSGOONIES\DEBUG\MAIN.OBJ
D:\UNIVERSITAT\UPC\CUARTO\VJ\LOSGOONIES\LOSGOONIES\2DGAME\LOSGOONIES\LOSGOONIES\DEBUG\TILEMAP.OBJ
D:\UNIVERSITAT\UPC\CUARTO\VJ\LOSGOONIES\LOSGOONIES\2DGAME\LOSGOONIES\LOSGOONIES\DEBUG\SCENE.OBJ
D:\UNIVERSITAT\UPC\CUARTO\VJ\LOSGOONIES\LOSGOONIES\2DGAME\LOSGOONIES\LOSGOONIES\DEBUG\PLAYER.OBJ
D:\UNIVERSITAT\UPC\CUARTO\VJ\LOSGOONIES\LOSGOONIES\2DGAME\LOSGOONIES\LOSGOONIES\DEBUG\GAME.OBJ
^D:\UNIVERSITAT\UPC\CUARTO\VJ\LOSGOONIES\LOSGOONIES\2DGAME\LOSGOONIES\LOSGOONIES\DOOR.CPP|D:\UNIVERSITAT\UPC\CUARTO\VJ\LOSGOONIES\LOSGOONIES\2DGAME\LOSGOONIES\LOSGOONIES\SCREEN.CPP
D:\UNIVERSITAT\UPC\CUARTO\VJ\LOSGOONIES\LOSGOONIES\2DGAME\LOSGOONIES\LOSGOONIES\DEBUG\VC142.PDB
D:\UNIVERSITAT\UPC\CUARTO\VJ\LOSGOONIES\LOSGOONIES\2DGAME\LOSGOONIES\LOSGOONIES\DEBUG\VC142.IDB
D:\UNIVERSITAT\UPC\CUARTO\VJ\LOSGOONIES\LOSGOONIES\2DGAME\LOSGOONIES\LOSGOONIES\DEBUG\SCREEN.OBJ
D:\UNIVERSITAT\UPC\CUARTO\VJ\LOSGOONIES\LOSGOONIES\2DGAME\LOSGOONIES\LOSGOONIES\DEBUG\DOOR.OBJ
^D:\UNIVERSITAT\UPC\CUARTO\VJ\LOSGOONIES\LOSGOONIES\2DGAME\LOSGOONIES\LOSGOONIES\DOOR.CPP
D:\UNIVERSITAT\UPC\CUARTO\VJ\LOSGOONIES\LOSGOONIES\2DGAME\LOSGOONIES\LOSGOONIES\DEBUG\VC142.PDB
D:\UNIVERSITAT\UPC\CUARTO\VJ\LOSGOONIES\LOSGOONIES\2DGAME\LOSGOONIES\LOSGOONIES\DEBUG\VC142.IDB
D:\UNIVERSITAT\UPC\CUARTO\VJ\LOSGOONIES\LOSGOONIES\2DGAME\LOSGOONIES\LOSGOONIES\DEBUG\DOOR.OBJ
^D:\UNIVERSITAT\UPC\CUARTO\VJ\LOSGOONIES\LOSGOONIES\2DGAME\LOSGOONIES\LOSGOONIES\GAME.CPP|D:\UNIVERSITAT\UPC\CUARTO\VJ\LOSGOONIES\LOSGOONIES\2DGAME\LOSGOONIES\LOSGOONIES\GOTA.CPP|D:\UNIVERSITAT\UPC\CUARTO\VJ\LOSGOONIES\LOSGOONIES\2DGAME\LOSGOONIES\LOSGOONIES\JAR.CPP|D:\UNIVERSITAT\UPC\CUARTO\VJ\LOSGOONIES\LOSGOONIES\2DGAME\LOSGOONIES\LOSGOONIES\MAIN.CPP|D:\UNIVERSITAT\UPC\CUARTO\VJ\LOSGOONIES\LOSGOONIES\2DGAME\LOSGOONIES\LOSGOONIES\PLAYER.CPP|D:\UNIVERSITAT\UPC\CUARTO\VJ\LOSGOONIES\LOSGOONIES\2DGAME\LOSGOONIES\LOSGOONIES\SCENE.CPP|D:\UNIVERSITAT\UPC\CUARTO\VJ\LOSGOONIES\LOSGOONIES\2DGAME\LOSGOONIES\LOSGOONIES\SCREEN.CPP|D:\UNIVERSITAT\UPC\CUARTO\VJ\LOSGOONIES\LOSGOONIES\2DGAME\LOSGOONIES\LOSGOONIES\TILEMAP.CPP
D:\UNIVERSITAT\UPC\CUARTO\VJ\LOSGOONIES\LOSGOONIES\2DGAME\LOSGOONIES\LOSGOONIES\DEBUG\VC142.PDB
D:\UNIVERSITAT\UPC\CUARTO\VJ\LOSGOONIES\LOSGOONIES\2DGAME\LOSGOONIES\LOSGOONIES\DEBUG\VC142.IDB
D:\UNIVERSITAT\UPC\CUARTO\VJ\LOSGOONIES\LOSGOONIES\2DGAME\LOSGOONIES\LOSGOONIES\DEBUG\TILEMAP.OBJ
D:\UNIVERSITAT\UPC\CUARTO\VJ\LOSGOONIES\LOSGOONIES\2DGAME\LOSGOONIES\LOSGOONIES\DEBUG\SCREEN.OBJ
D:\UNIVERSITAT\UPC\CUARTO\VJ\LOSGOONIES\LOSGOONIES\2DGAME\LOSGOONIES\LOSGOONIES\DEBUG\SCENE.OBJ
D:\UNIVERSITAT\UPC\CUARTO\VJ\LOSGOONIES\LOSGOONIES\2DGAME\LOSGOONIES\LOSGOONIES\DEBUG\PLAYER.OBJ
D:\UNIVERSITAT\UPC\CUARTO\VJ\LOSGOONIES\LOSGOONIES\2DGAME\LOSGOONIES\LOSGOONIES\DEBUG\MAIN.OBJ
D:\UNIVERSITAT\UPC\CUARTO\VJ\LOSGOONIES\LOSGOONIES\2DGAME\LOSGOONIES\LOSGOONIES\DEBUG\JAR.OBJ
D:\UNIVERSITAT\UPC\CUARTO\VJ\LOSGOONIES\LOSGOONIES\2DGAME\LOSGOONIES\LOSGOONIES\DEBUG\GOTA.OBJ
D:\UNIVERSITAT\UPC\CUARTO\VJ\LOSGOONIES\LOSGOONIES\2DGAME\LOSGOONIES\LOSGOONIES\DEBUG\GAME.OBJ
^D:\UNIVERSITAT\UPC\CUARTO\VJ\LOSGOONIES\LOSGOONIES\2DGAME\LOSGOONIES\LOSGOONIES\JAR.CPP
D:\UNIVERSITAT\UPC\CUARTO\VJ\LOSGOONIES\LOSGOONIES\2DGAME\LOSGOONIES\LOSGOONIES\DEBUG\VC142.PDB
^D:\UNIVERSITAT\UPC\CUARTO\VJ\LOSGOONIES\LOSGOONIES\2DGAME\LOSGOONIES\LOSGOONIES\GAME.CPP|D:\UNIVERSITAT\UPC\CUARTO\VJ\LOSGOONIES\LOSGOONIES\2DGAME\LOSGOONIES\LOSGOONIES\GOTA.CPP|D:\UNIVERSITAT\UPC\CUARTO\VJ\LOSGOONIES\LOSGOONIES\2DGAME\LOSGOONIES\LOSGOONIES\MAIN.CPP|D:\UNIVERSITAT\UPC\CUARTO\VJ\LOSGOONIES\LOSGOONIES\2DGAME\LOSGOONIES\LOSGOONIES\PLAYER.CPP|D:\UNIVERSITAT\UPC\CUARTO\VJ\LOSGOONIES\LOSGOONIES\2DGAME\LOSGOONIES\LOSGOONIES\SCENE.CPP|D:\UNIVERSITAT\UPC\CUARTO\VJ\LOSGOONIES\LOSGOONIES\2DGAME\LOSGOONIES\LOSGOONIES\SCREEN.CPP|D:\UNIVERSITAT\UPC\CUARTO\VJ\LOSGOONIES\LOSGOONIES\2DGAME\LOSGOONIES\LOSGOONIES\TILEMAP.CPP
D:\UNIVERSITAT\UPC\CUARTO\VJ\LOSGOONIES\LOSGOONIES\2DGAME\LOSGOONIES\LOSGOONIES\DEBUG\VC142.PDB
D:\UNIVERSITAT\UPC\CUARTO\VJ\LOSGOONIES\LOSGOONIES\2DGAME\LOSGOONIES\LOSGOONIES\DEBUG\VC142.IDB
D:\UNIVERSITAT\UPC\CUARTO\VJ\LOSGOONIES\LOSGOONIES\2DGAME\LOSGOONIES\LOSGOONIES\DEBUG\MAIN.OBJ
D:\UNIVERSITAT\UPC\CUARTO\VJ\LOSGOONIES\LOSGOONIES\2DGAME\LOSGOONIES\LOSGOONIES\DEBUG\TILEMAP.OBJ
D:\UNIVERSITAT\UPC\CUARTO\VJ\LOSGOONIES\LOSGOONIES\2DGAME\LOSGOONIES\LOSGOONIES\DEBUG\SCREEN.OBJ
D:\UNIVERSITAT\UPC\CUARTO\VJ\LOSGOONIES\LOSGOONIES\2DGAME\LOSGOONIES\LOSGOONIES\DEBUG\SCENE.OBJ
D:\UNIVERSITAT\UPC\CUARTO\VJ\LOSGOONIES\LOSGOONIES\2DGAME\LOSGOONIES\LOSGOONIES\DEBUG\PLAYER.OBJ
D:\UNIVERSITAT\UPC\CUARTO\VJ\LOSGOONIES\LOSGOONIES\2DGAME\LOSGOONIES\LOSGOONIES\DEBUG\GOTA.OBJ
D:\UNIVERSITAT\UPC\CUARTO\VJ\LOSGOONIES\LOSGOONIES\2DGAME\LOSGOONIES\LOSGOONIES\DEBUG\GAME.OBJ
^D:\UNIVERSITAT\UPC\CUARTO\VJ\LOSGOONIES\LOSGOONIES\2DGAME\LOSGOONIES\LOSGOONIES\GAME.CPP
D:\UNIVERSITAT\UPC\CUARTO\VJ\LOSGOONIES\LOSGOONIES\2DGAME\LOSGOONIES\LOSGOONIES\DEBUG\VC142.PDB
^D:\UNIVERSITAT\UPC\CUARTO\VJ\LOSGOONIES\LOSGOONIES\2DGAME\LOSGOONIES\LOSGOONIES\GOTA.CPP
D:\UNIVERSITAT\UPC\CUARTO\VJ\LOSGOONIES\LOSGOONIES\2DGAME\LOSGOONIES\LOSGOONIES\DEBUG\VC142.PDB
^D:\UNIVERSITAT\UPC\CUARTO\VJ\LOSGOONIES\LOSGOONIES\2DGAME\LOSGOONIES\LOSGOONIES\PLAYER.CPP
D:\UNIVERSITAT\UPC\CUARTO\VJ\LOSGOONIES\LOSGOONIES\2DGAME\LOSGOONIES\LOSGOONIES\DEBUG\VC142.PDB
^D:\UNIVERSITAT\UPC\CUARTO\VJ\LOSGOONIES\LOSGOONIES\2DGAME\LOSGOONIES\LOSGOONIES\SCENE.CPP
D:\UNIVERSITAT\UPC\CUARTO\VJ\LOSGOONIES\LOSGOONIES\2DGAME\LOSGOONIES\LOSGOONIES\DEBUG\VC142.PDB
^D:\UNIVERSITAT\UPC\CUARTO\VJ\LOSGOONIES\LOSGOONIES\2DGAME\LOSGOONIES\LOSGOONIES\SCREEN.CPP
D:\UNIVERSITAT\UPC\CUARTO\VJ\LOSGOONIES\LOSGOONIES\2DGAME\LOSGOONIES\LOSGOONIES\DEBUG\VC142.PDB
^D:\UNIVERSITAT\UPC\CUARTO\VJ\LOSGOONIES\LOSGOONIES\2DGAME\LOSGOONIES\LOSGOONIES\TILEMAP.CPP
D:\UNIVERSITAT\UPC\CUARTO\VJ\LOSGOONIES\LOSGOONIES\2DGAME\LOSGOONIES\LOSGOONIES\DEBUG\VC142.PDB
^D:\UNIVERSITAT\UPC\CUARTO\VJ\LOSGOONIES\LOSGOONIES\2DGAME\LOSGOONIES\LOSGOONIES\MAIN.CPP
D:\UNIVERSITAT\UPC\CUARTO\VJ\LOSGOONIES\LOSGOONIES\2DGAME\LOSGOONIES\LOSGOONIES\DEBUG\VC142.PDB
^D:\UNIVERSITAT\UPC\CUARTO\VJ\VJ-LOSGOONIES\VJ-LOSGOONIES\2DGAME\LOSGOONIES\LOSGOONIES\DOOR.CPP|D:\UNIVERSITAT\UPC\CUARTO\VJ\VJ-LOSGOONIES\VJ-LOSGOONIES\2DGAME\LOSGOONIES\LOSGOONIES\ENEMY.CPP|D:\UNIVERSITAT\UPC\CUARTO\VJ\VJ-LOSGOONIES\VJ-LOSGOONIES\2DGAME\LOSGOONIES\LOSGOONIES\GAME.CPP|D:\UNIVERSITAT\UPC\CUARTO\VJ\VJ-LOSGOONIES\VJ-LOSGOONIES\2DGAME\LOSGOONIES\LOSGOONIES\GOTA.CPP|D:\UNIVERSITAT\UPC\CUARTO\VJ\VJ-LOSGOONIES\VJ-LOSGOONIES\2DGAME\LOSGOONIES\LOSGOONIES\JAR.CPP|D:\UNIVERSITAT\UPC\CUARTO\VJ\VJ-LOSGOONIES\VJ-LOSGOONIES\2DGAME\LOSGOONIES\LOSGOONIES\KEY.CPP|D:\UNIVERSITAT\UPC\CUARTO\VJ\VJ-LOSGOONIES\VJ-LOSGOONIES\2DGAME\LOSGOONIES\LOSGOONIES\MAIN.CPP|D:\UNIVERSITAT\UPC\CUARTO\VJ\VJ-LOSGOONIES\VJ-LOSGOONIES\2DGAME\LOSGOONIES\LOSGOONIES\PLAYER.CPP|D:\UNIVERSITAT\UPC\CUARTO\VJ\VJ-LOSGOONIES\VJ-LOSGOONIES\2DGAME\LOSGOONIES\LOSGOONIES\SCENE.CPP|D:\UNIVERSITAT\UPC\CUARTO\VJ\VJ-LOSGOONIES\VJ-LOSGOONIES\2DGAME\LOSGOONIES\LOSGOONIES\SCREEN.CPP|D:\UNIVERSITAT\UPC\CUARTO\VJ\VJ-LOSGOONIES\VJ-LOSGOONIES\2DGAME\LOSGOONIES\LOSGOONIES\SHADER.CPP|D:\UNIVERSITAT\UPC\CUARTO\VJ\VJ-LOSGOONIES\VJ-LOSGOONIES\2DGAME\LOSGOONIES\LOSGOONIES\SHADERPROGRAM.CPP|D:\UNIVERSITAT\UPC\CUARTO\VJ\VJ-LOSGOONIES\VJ-LOSGOONIES\2DGAME\LOSGOONIES\LOSGOONIES\SPRITE.CPP|D:\UNIVERSITAT\UPC\CUARTO\VJ\VJ-LOSGOONIES\VJ-LOSGOONIES\2DGAME\LOSGOONIES\LOSGOONIES\TEXTURE.CPP|D:\UNIVERSITAT\UPC\CUARTO\VJ\VJ-LOSGOONIES\VJ-LOSGOONIES\2DGAME\LOSGOONIES\LOSGOONIES\TILEMAP.CPP
D:\UNIVERSITAT\UPC\CUARTO\VJ\VJ-LOSGOONIES\VJ-LOSGOONIES\2DGAME\LOSGOONIES\LOSGOONIES\DEBUG\VC142.PDB
D:\UNIVERSITAT\UPC\CUARTO\VJ\VJ-LOSGOONIES\VJ-LOSGOONIES\2DGAME\LOSGOONIES\LOSGOONIES\DEBUG\VC142.IDB
D:\UNIVERSITAT\UPC\CUARTO\VJ\VJ-LOSGOONIES\VJ-LOSGOONIES\2DGAME\LOSGOONIES\LOSGOONIES\DEBUG\TILEMAP.OBJ
D:\UNIVERSITAT\UPC\CUARTO\VJ\VJ-LOSGOONIES\VJ-LOSGOONIES\2DGAME\LOSGOONIES\LOSGOONIES\DEBUG\TEXTURE.OBJ
D:\UNIVERSITAT\UPC\CUARTO\VJ\VJ-LOSGOONIES\VJ-LOSGOONIES\2DGAME\LOSGOONIES\LOSGOONIES\DEBUG\SPRITE.OBJ
D:\UNIVERSITAT\UPC\CUARTO\VJ\VJ-LOSGOONIES\VJ-LOSGOONIES\2DGAME\LOSGOONIES\LOSGOONIES\DEBUG\SHADERPROGRAM.OBJ
D:\UNIVERSITAT\UPC\CUARTO\VJ\VJ-LOSGOONIES\VJ-LOSGOONIES\2DGAME\LOSGOONIES\LOSGOONIES\DEBUG\SHADER.OBJ
D:\UNIVERSITAT\UPC\CUARTO\VJ\VJ-LOSGOONIES\VJ-LOSGOONIES\2DGAME\LOSGOONIES\LOSGOONIES\DEBUG\SCREEN.OBJ
D:\UNIVERSITAT\UPC\CUARTO\VJ\VJ-LOSGOONIES\VJ-LOSGOONIES\2DGAME\LOSGOONIES\LOSGOONIES\DEBUG\SCENE.OBJ
D:\UNIVERSITAT\UPC\CUARTO\VJ\VJ-LOSGOONIES\VJ-LOSGOONIES\2DGAME\LOSGOONIES\LOSGOONIES\DEBUG\PLAYER.OBJ
D:\UNIVERSITAT\UPC\CUARTO\VJ\VJ-LOSGOONIES\VJ-LOSGOONIES\2DGAME\LOSGOONIES\LOSGOONIES\DEBUG\MAIN.OBJ
D:\UNIVERSITAT\UPC\CUARTO\VJ\VJ-LOSGOONIES\VJ-LOSGOONIES\2DGAME\LOSGOONIES\LOSGOONIES\DEBUG\KEY.OBJ
D:\UNIVERSITAT\UPC\CUARTO\VJ\VJ-LOSGOONIES\VJ-LOSGOONIES\2DGAME\LOSGOONIES\LOSGOONIES\DEBUG\JAR.OBJ
D:\UNIVERSITAT\UPC\CUARTO\VJ\VJ-LOSGOONIES\VJ-LOSGOONIES\2DGAME\LOSGOONIES\LOSGOONIES\DEBUG\GOTA.OBJ
D:\UNIVERSITAT\UPC\CUARTO\VJ\VJ-LOSGOONIES\VJ-LOSGOONIES\2DGAME\LOSGOONIES\LOSGOONIES\DEBUG\GAME.OBJ
D:\UNIVERSITAT\UPC\CUARTO\VJ\VJ-LOSGOONIES\VJ-LOSGOONIES\2DGAME\LOSGOONIES\LOSGOONIES\DEBUG\ENEMY.OBJ
D:\UNIVERSITAT\UPC\CUARTO\VJ\VJ-LOSGOONIES\VJ-LOSGOONIES\2DGAME\LOSGOONIES\LOSGOONIES\DEBUG\DOOR.OBJ
^D:\UNIVERSITAT\UPC\CUARTO\VJ\VJ-LOSGOONIES\VJ-LOSGOONIES\2DGAME\LOSGOONIES\LOSGOONIES\DOOR.CPP
D:\UNIVERSITAT\UPC\CUARTO\VJ\VJ-LOSGOONIES\VJ-LOSGOONIES\2DGAME\LOSGOONIES\LOSGOONIES\DEBUG\VC142.PDB
^D:\UNIVERSITAT\UPC\CUARTO\VJ\VJ-LOSGOONIES\VJ-LOSGOONIES\2DGAME\LOSGOONIES\LOSGOONIES\ENEMY.CPP
D:\UNIVERSITAT\UPC\CUARTO\VJ\VJ-LOSGOONIES\VJ-LOSGOONIES\2DGAME\LOSGOONIES\LOSGOONIES\DEBUG\VC142.PDB
^D:\UNIVERSITAT\UPC\CUARTO\VJ\VJ-LOSGOONIES\VJ-LOSGOONIES\2DGAME\LOSGOONIES\LOSGOONIES\GAME.CPP
D:\UNIVERSITAT\UPC\CUARTO\VJ\VJ-LOSGOONIES\VJ-LOSGOONIES\2DGAME\LOSGOONIES\LOSGOONIES\DEBUG\VC142.PDB
^D:\UNIVERSITAT\UPC\CUARTO\VJ\VJ-LOSGOONIES\VJ-LOSGOONIES\2DGAME\LOSGOONIES\LOSGOONIES\GOTA.CPP
D:\UNIVERSITAT\UPC\CUARTO\VJ\VJ-LOSGOONIES\VJ-LOSGOONIES\2DGAME\LOSGOONIES\LOSGOONIES\DEBUG\VC142.PDB
^D:\UNIVERSITAT\UPC\CUARTO\VJ\VJ-LOSGOONIES\VJ-LOSGOONIES\2DGAME\LOSGOONIES\LOSGOONIES\JAR.CPP
D:\UNIVERSITAT\UPC\CUARTO\VJ\VJ-LOSGOONIES\VJ-LOSGOONIES\2DGAME\LOSGOONIES\LOSGOONIES\DEBUG\VC142.PDB
^D:\UNIVERSITAT\UPC\CUARTO\VJ\VJ-LOSGOONIES\VJ-LOSGOONIES\2DGAME\LOSGOONIES\LOSGOONIES\KEY.CPP
D:\UNIVERSITAT\UPC\CUARTO\VJ\VJ-LOSGOONIES\VJ-LOSGOONIES\2DGAME\LOSGOONIES\LOSGOONIES\DEBUG\VC142.PDB
^D:\UNIVERSITAT\UPC\CUARTO\VJ\VJ-LOSGOONIES\VJ-LOSGOONIES\2DGAME\LOSGOONIES\LOSGOONIES\MAIN.CPP
D:\UNIVERSITAT\UPC\CUARTO\VJ\VJ-LOSGOONIES\VJ-LOSGOONIES\2DGAME\LOSGOONIES\LOSGOONIES\DEBUG\VC142.PDB
^D:\UNIVERSITAT\UPC\CUARTO\VJ\VJ-LOSGOONIES\VJ-LOSGOONIES\2DGAME\LOSGOONIES\LOSGOONIES\PLAYER.CPP
D:\UNIVERSITAT\UPC\CUARTO\VJ\VJ-LOSGOONIES\VJ-LOSGOONIES\2DGAME\LOSGOONIES\LOSGOONIES\DEBUG\VC142.PDB
^D:\UNIVERSITAT\UPC\CUARTO\VJ\VJ-LOSGOONIES\VJ-LOSGOONIES\2DGAME\LOSGOONIES\LOSGOONIES\SCENE.CPP
D:\UNIVERSITAT\UPC\CUARTO\VJ\VJ-LOSGOONIES\VJ-LOSGOONIES\2DGAME\LOSGOONIES\LOSGOONIES\DEBUG\VC142.PDB
^D:\UNIVERSITAT\UPC\CUARTO\VJ\VJ-LOSGOONIES\VJ-LOSGOONIES\2DGAME\LOSGOONIES\LOSGOONIES\SCREEN.CPP
D:\UNIVERSITAT\UPC\CUARTO\VJ\VJ-LOSGOONIES\VJ-LOSGOONIES\2DGAME\LOSGOONIES\LOSGOONIES\DEBUG\VC142.PDB
^D:\UNIVERSITAT\UPC\CUARTO\VJ\VJ-LOSGOONIES\VJ-LOSGOONIES\2DGAME\LOSGOONIES\LOSGOONIES\SHADER.CPP
D:\UNIVERSITAT\UPC\CUARTO\VJ\VJ-LOSGOONIES\VJ-LOSGOONIES\2DGAME\LOSGOONIES\LOSGOONIES\DEBUG\VC142.PDB
^D:\UNIVERSITAT\UPC\CUARTO\VJ\VJ-LOSGOONIES\VJ-LOSGOONIES\2DGAME\LOSGOONIES\LOSGOONIES\SHADERPROGRAM.CPP
D:\UNIVERSITAT\UPC\CUARTO\VJ\VJ-LOSGOONIES\VJ-LOSGOONIES\2DGAME\LOSGOONIES\LOSGOONIES\DEBUG\VC142.PDB
^D:\UNIVERSITAT\UPC\CUARTO\VJ\VJ-LOSGOONIES\VJ-LOSGOONIES\2DGAME\LOSGOONIES\LOSGOONIES\SPRITE.CPP
D:\UNIVERSITAT\UPC\CUARTO\VJ\VJ-LOSGOONIES\VJ-LOSGOONIES\2DGAME\LOSGOONIES\LOSGOONIES\DEBUG\VC142.PDB
^D:\UNIVERSITAT\UPC\CUARTO\VJ\VJ-LOSGOONIES\VJ-LOSGOONIES\2DGAME\LOSGOONIES\LOSGOONIES\TEXTURE.CPP
D:\UNIVERSITAT\UPC\CUARTO\VJ\VJ-LOSGOONIES\VJ-LOSGOONIES\2DGAME\LOSGOONIES\LOSGOONIES\DEBUG\VC142.PDB
^D:\UNIVERSITAT\UPC\CUARTO\VJ\VJ-LOSGOONIES\VJ-LOSGOONIES\2DGAME\LOSGOONIES\LOSGOONIES\TILEMAP.CPP
D:\UNIVERSITAT\UPC\CUARTO\VJ\VJ-LOSGOONIES\VJ-LOSGOONIES\2DGAME\LOSGOONIES\LOSGOONIES\DEBUG\VC142.PDB
