{
    "screens": [
        {
            "gotas": {
                "num_gotas": 3,
                "data":[
                    {
                        "posX": 6,
                        "posY": 5, 
                        "height":4
                    }, 
                    {
                        "posX": 17,
                        "posY": 12, 
                        "height": 7
                    }, 
                    {
                        "posX": 26,
                        "posY": 4, 
                        "height": 7
                    }
                ]

            },
            "enemies":{
                "num_enemies": 2,
                "data": [
                    {
                        "type": "Esqueleto",
                        "startX": 28 ,
                        "startY":18 ,
                        "speed": 0.1,
                        "width_attack": 16,
                        "attack": 2
                    },
                    {
                        "type": "Esqueleto",
                        "startX":28 ,
                        "startY":10 ,
                        "speed": 0.08,
                        "width_attack": 16,
                        "attack": 4
                    }
                ]
            },
            "has_jar": true, 
            "has_door": false, 
            "has_keys": false,
            "door":{

            },
            "keys":
            {
 
            },
            "jar":
            {
                "exp": 10, 
                "posX": 3,
                "posY": 14 
            }
            
        },
        {
            "gotas": {
                "num_gotas": 2,
                "data":[
                    {
                        "posX": 23,
                        "posY": 13, 
                        "height":6
                    }, 
                    {
                        "posX": 14,
                        "posY": 5, 
                        "height": 6
                    }
                ]

            },
            "enemies":{
                "num_enemies": 2,
                "data": [
                    {
                        "type": "Esqueleto",
                        "startX": 22 ,
                        "startY":10 ,
                        "speed": 0.1,
                        "width_attack": 24,
                        "attack": 2
                    },
                    {
                        "type": "Calavera",
                        "startX":30 ,
                        "startY":18 ,
                        "speed": 0.08,
                        "width_attack": 13,
                        "attack": 4
                    }
                ]
            },
            "has_jar" : true, 
            "has_door": false, 
            "has_keys": false, 
            "door":{

            },
            "keys":
             {
                    
            },
            "jar":
            {
                "exp": 10, 
                "posX": 3,
                "posY": 18 
            }
            
        },
        {
            "gotas": {
                "num_gotas": 2,
                "data":[
                    {
                        "posX": 13,
                        "posY": 9, 
                        "height": 10
                    },
                    {
                        "posX": 29,
                        "posY": 9, 
                        "height": 10
                    }
                ]

            },

            "enemies":{
                "num_enemies": 2,
                "data": [
                    {
                        "type": "Esqueleto",
                        "startX":13 ,
                        "startY":18 ,
                        "speed": 0.08,
                        "width_attack": 10,
                        "attack": 4
                    },
                    {
                        "type": "Esqueleto",
                        "startX":30 ,
                        "startY":18,
                        "speed": 0.08,
                        "width_attack": 10,
                        "attack": 4
                    }
                ]
            },
            "has_jar": false,
            "has_door": true, 
            "has_keys": false, 
            "door":{
                "id_door": 1,
                "initialX":22 ,
                "initialY":16,
                "finalX":0,
                "finalY": 0,
                "source": "images/door_open.png",
                "data": [1, 2, 3, 4, 5, 6, 7, 8, 9,10,11,12],
                "width": 3,
                "height": 4,
                "tilesheetSizeX": 3,
                "tilesheetSizeY": 4,
                "tilewidth":16,
                "tileheight": 16, 
                "mapSizeX": 32,
                "mapSizeY": 28
            },
            "keys":
            {

            },
            "jar":
            {

            }

        },
        {
            "gotas": {
                "num_gotas": 0,
                "data":[

                ]

            },
            "enemies": {
                "num_enemies": 1,
                "data": [
                    {
                        "type": "Calavera",
                        "startX": 23 ,
                        "startY":18 ,
                        "speed": 0.1,
                        "width_attack": 10,
                        "attack": 2
                    }
                ]
            },
            "has_jar": true,
            "has_door": false,
            "has_keys": true,  
            "door":{
 
            },
            "keys":
            {
                "id_key": 0,
                "door_to_open": 1,
                "posX":26,
                "posY":18,
                "source": "images/key.png" 
            },
            "jar":
            {
                "exp": 10, 
                "posX": 3,
                "posY": 6
            }
            
            
        }  
    ],
    "num_screens": 4
}