{ "compressionlevel":-1,
 "editorsettings":
    {
     "export":
        {
         "format":"json",
         "target":"escena2.json"
        }
    },
 "height":56,
 "infinite":false,
 "layers":[
        {
         "data":[0, 0, 0, 0, 0, 0, 0, 0, 0, 0, 0, 0, 0, 0, 0, 0, 0, 0, 0, 0, 0, 0, 0, 0, 0, 0, 0, 0, 0, 0, 0, 0, 0, 0, 0, 0, 0, 0, 0, 0, 0, 0, 0, 0, 0, 0, 0, 0, 0, 0, 0, 0, 0, 0, 0, 0, 0, 0, 0, 0, 0, 0, 0, 0, 0, 0, 0, 0, 0, 0, 0, 0, 0, 0, 0, 0, 0, 0, 0, 0, 0, 0, 0, 0, 0, 0, 0, 0, 0, 0, 0, 0, 0, 0, 0, 0, 0, 0, 0, 0, 0, 0, 0, 0, 0, 0, 0, 0, 0, 0, 0, 0, 0, 0, 0, 0, 0, 0, 0, 0, 0, 0, 0, 0, 0, 0, 0, 0, 0, 0, 0, 0, 0, 0, 0, 0, 0, 0, 0, 0, 0, 0, 0, 0, 0, 0, 0, 0, 0, 0, 0, 0, 0, 0, 0, 0, 0, 0, 0, 0, 0, 0, 0, 0, 0, 0, 0, 0, 0, 0, 0, 0, 0, 0, 0, 0, 0, 0, 0, 0, 0, 0, 0, 0, 0, 0, 0, 0, 0, 0, 0, 0, 0, 0, 0, 0, 0, 0, 0, 0, 0, 0, 0, 0, 0, 0, 0, 0, 0, 0, 0, 0, 0, 0, 0, 0, 0, 0, 0, 0, 0, 0, 0, 0, 0, 0, 0, 0, 0, 0, 0, 0, 0, 0, 0, 0, 0, 0, 0, 0, 0, 0, 0, 0, 0, 0, 0, 0, 0, 0, 0, 0, 0, 0, 0, 0, 31, 32, 31, 32, 31, 32, 31, 32, 31, 32, 31, 32, 31, 32, 31, 32, 31, 32, 31, 31, 31, 32, 31, 32, 31, 32, 31, 32, 31, 32, 31, 32, 0, 0, 0, 0, 0, 0, 0, 0, 0, 0, 0, 0, 0, 0, 0, 0, 0, 0, 0, 0, 0, 0, 0, 0, 0, 0, 0, 0, 0, 0, 0, 0, 31, 32, 31, 32, 31, 32, 31, 32, 31, 32, 31, 32, 32, 31, 32, 31, 32, 31, 32, 31, 32, 31, 32, 31, 32, 31, 32, 31, 32, 31, 32, 31, 0, 0, 0, 0, 0, 0, 0, 0, 0, 0, 0, 0, 0, 0, 0, 0, 0, 0, 0, 0, 0, 0, 0, 0, 0, 0, 0, 0, 0, 0, 0, 0, 164, 13, 14, 15, 16, 16, 132, 166, 13, 14, 15, 167, 16, 132, 166, 13, 14, 15, 167, 167, 132, 166, 14, 15, 15, 132, 31, 166, 16, 32, 31, 32, 0, 0, 0, 0, 0, 0, 0, 0, 0, 0, 0, 0, 0, 0, 0, 0, 0, 0, 0, 0, 0, 0, 0, 0, 0, 0, 0, 0, 0, 0, 0, 0, 163, 35, 35, 35, 35, 35, 35, 35, 35, 76, 76, 76, 76, 76, 76, 76, 76, 76, 76, 76, 76, 76, 76, 76, 76, 127, 31, 163, 76, 130, 32, 31, 0, 0, 0, 0, 0, 0, 0, 0, 0, 0, 0, 0, 0, 0, 0, 0, 0, 0, 0, 0, 0, 0, 0, 0, 0, 0, 0, 0, 0, 0, 0, 0, 162, 35, 137, 167, 171, 35, 35, 35, 35, 35, 35, 35, 35, 35, 35, 35, 35, 76, 76, 76, 76, 76, 76, 76, 76, 76, 15, 76, 76, 76, 130, 32, 0, 0, 0, 0, 0, 0, 0, 0, 0, 0, 0, 0, 0, 0, 0, 0, 0, 0, 0, 0, 0, 0, 0, 0, 0, 0, 0, 0, 0, 0, 0, 0, 163, 35, 136, 76, 170, 35, 35, 35, 35, 35, 35, 35, 35, 76, 76, 76, 76, 76, 76, 76, 76, 76, 76, 76, 76, 76, 76, 76, 76, 76, 76, 130, 0, 0, 0, 0, 0, 0, 0, 0, 0, 0, 0, 0, 0, 0, 0, 0, 0, 0, 0, 0, 0, 0, 0, 0, 0, 0, 0, 0, 0, 0, 0, 0, 165, 1, 125, 1, 159, 1, 1, 1, 1, 1, 160, 35, 35, 126, 1, 1, 1, 1, 1, 1, 1, 160, 76, 76, 76, 76, 76, 76, 76, 76, 76, 127, 0, 0, 0, 0, 0, 0, 0, 0, 0, 0, 0, 0, 0, 0, 0, 0, 0, 0, 0, 0, 0, 0, 0, 0, 0, 0, 0, 0, 0, 0, 0, 0, 31, 32, 31, 32, 31, 32, 31, 32, 31, 32, 164, 88, 35, 167, 133, 14, 16, 132, 166, 20, 14, 15, 88, 88, 88, 88, 88, 88, 88, 88, 88, 128, 0, 0, 0, 0, 0, 0, 0, 0, 0, 0, 0, 0, 0, 0, 0, 0, 0, 0, 0, 0, 0, 0, 0, 0, 0, 0, 0, 0, 0, 0, 0, 0, 31, 32, 31, 32, 31, 32, 31, 32, 31, 32, 163, 88, 35, 35, 35, 35, 88, 88, 88, 21, 88, 88, 88, 88, 88, 88, 88, 88, 137, 167, 171, 127, 0, 0, 0, 0, 0, 0, 0, 0, 0, 0, 0, 0, 0, 0, 0, 0, 0, 0, 0, 0, 0, 0, 0, 0, 0, 0, 0, 0, 0, 0, 0, 0, 31, 32, 31, 32, 31, 32, 31, 32, 31, 32, 163, 88, 35, 35, 35, 88, 88, 88, 88, 21, 88, 88, 88, 88, 88, 183, 183, 183, 136, 76, 170, 127, 0, 0, 0, 0, 0, 0, 0, 0, 0, 0, 0, 0, 0, 0, 0, 0, 0, 0, 0, 0, 0, 0, 0, 0, 0, 0, 0, 0, 0, 0, 0, 0, 31, 32, 31, 32, 31, 32, 31, 32, 31, 164, 39, 88, 88, 88, 88, 88, 88, 88, 126, 2, 1, 1, 1, 160, 88, 183, 183, 126, 125, 1, 159, 131, 0, 0, 0, 0, 0, 0, 0, 0, 0, 0, 0, 0, 0, 0, 0, 0, 0, 0, 0, 0, 0, 0, 0, 0, 0, 0, 0, 0, 0, 0, 0, 0, 164, 132, 166, 13, 14, 15, 16, 167, 132, 39, 98, 88, 88, 88, 88, 88, 88, 88, 130, 166, 133, 20, 132, 166, 88, 88, 86, 130, 32, 31, 32, 31, 0, 0, 0, 0, 0, 0, 0, 0, 0, 0, 0, 0, 0, 0, 0, 0, 0, 0, 0, 0, 0, 0, 0, 0, 0, 0, 0, 0, 0, 0, 0, 0, 162, 129, 163, 35, 35, 35, 35, 35, 35, 35, 35, 35, 88, 88, 88, 88, 88, 88, 22, 23, 88, 21, 183, 183, 183, 183, 86, 127, 31, 32, 31, 32, 0, 0, 0, 0, 0, 0, 0, 0, 0, 0, 0, 0, 0, 0, 0, 0, 0, 0, 0, 0, 0, 0, 0, 0, 0, 0, 0, 0, 0, 0, 0, 0, 163, 22, 23, 35, 35, 35, 35, 35, 35, 35, 35, 35, 98, 98, 88, 88, 88, 88, 88, 88, 88, 21, 183, 183, 183, 183, 86, 127, 32, 31, 32, 31, 0, 0, 0, 0, 0, 0, 0, 0, 0, 0, 0, 0, 0, 0, 0, 0, 0, 0, 0, 0, 0, 0, 0, 0, 0, 0, 0, 0, 0, 0, 0, 0, 162, 35, 35, 35, 100, 100, 126, 1, 1, 1, 1, 160, 183, 98, 88, 88, 88, 88, 88, 88, 88, 21, 183, 183, 183, 183, 86, 127, 31, 32, 31, 32, 0, 0, 0, 0, 0, 0, 0, 0, 0, 0, 0, 0, 0, 0, 0, 0, 0, 0, 0, 0, 0, 0, 0, 0, 0, 0, 0, 0, 0, 0, 0, 0, 163, 35, 97, 97, 97, 100, 14, 167, 15, 20, 14, 133, 183, 98, 88, 99, 99, 99, 88, 88, 88, 21, 183, 183, 183, 183, 86, 128, 32, 31, 32, 31, 0, 0, 0, 0, 0, 0, 0, 0, 0, 0, 0, 0, 0, 0, 0, 0, 0, 0, 0, 0, 0, 0, 0, 0, 0, 0, 0, 0, 0, 0, 0, 0, 162, 35, 97, 97, 97, 100, 35, 35, 35, 21, 35, 35, 183, 183, 88, 99, 99, 99, 88, 88, 88, 21, 183, 183, 183, 183, 86, 127, 31, 32, 31, 32, 0, 0, 0, 0, 0, 0, 0, 0, 0, 0, 0, 0, 0, 0, 0, 0, 0, 0, 0, 0, 0, 0, 0, 0, 0, 0, 0, 0, 0, 0, 0, 0, 163, 35, 97, 97, 97, 100, 35, 35, 35, 21, 35, 35, 183, 183, 183, 99, 99, 99, 88, 88, 88, 21, 183, 183, 183, 183, 86, 127, 32, 31, 32, 31, 0, 0, 0, 0, 0, 0, 0, 0, 0, 0, 0, 0, 0, 0, 0, 0, 0, 0, 0, 0, 0, 0, 0, 0, 0, 0, 0, 0, 0, 0, 0, 0, 165, 1, 1, 1, 1, 1, 1, 1, 1, 2, 1, 1, 1, 1, 1, 1, 1, 1, 1, 1, 1, 2, 1, 1, 1, 1, 1, 131, 31, 32, 31, 32, 0, 0, 0, 0, 0, 0, 0, 0, 0, 0, 0, 0, 0, 0, 0, 0, 0, 0, 0, 0, 0, 0, 0, 0, 0, 0, 0, 0, 0, 0, 0, 0, 31, 32, 164, 20, 130, 32, 31, 32, 31, 32, 31, 31, 32, 31, 32, 31, 32, 31, 32, 31, 32, 31, 32, 31, 32, 31, 32, 31, 32, 31, 32, 31, 0, 0, 0, 0, 0, 0, 0, 0, 0, 0, 0, 0, 0, 0, 0, 0, 0, 0, 0, 0, 0, 0, 0, 0, 0, 0, 0, 0, 0, 0, 0, 0, 0, 0, 0, 0, 0, 0, 0, 0, 0, 0, 0, 0, 0, 0, 0, 0, 0, 0, 0, 0, 0, 0, 0, 0, 0, 0, 0, 0, 0, 0, 0, 0, 0, 0, 0, 0, 0, 0, 0, 0, 0, 0, 0, 0, 0, 0, 0, 0, 0, 0, 0, 0, 0, 0, 0, 0, 0, 0, 0, 0, 0, 0, 0, 0, 0, 0, 0, 0, 0, 0, 0, 0, 0, 0, 0, 0, 0, 0, 0, 0, 0, 0, 0, 0, 0, 0, 0, 0, 0, 0, 0, 0, 0, 0, 0, 0, 0, 0, 0, 0, 0, 0, 0, 0, 0, 0, 0, 0, 0, 0, 0, 0, 0, 0, 0, 0, 0, 0, 0, 0, 0, 0, 0, 0, 0, 0, 0, 0, 0, 0, 0, 0, 0, 0, 0, 0, 0, 0, 0, 0, 0, 0, 0, 0, 0, 0, 0, 0, 0, 0, 0, 0, 0, 0, 0, 0, 0, 0, 0, 0, 0, 0, 0, 0, 0, 0, 0, 0, 0, 0, 0, 0, 0, 0, 0, 0, 0, 0, 0, 0, 0, 0, 0, 0, 0, 0, 0, 0, 0, 0, 0, 0, 0, 0, 0, 0, 0, 0, 0, 0, 0, 0, 0, 0, 0, 0, 0, 0, 0, 0, 0, 0, 0, 0, 0, 0, 0, 0, 0, 0, 0, 0, 0, 0, 0, 0, 0, 0, 0, 0, 0, 0, 0, 0, 0, 0, 0, 0, 0, 0, 0, 0, 0, 0, 0, 0, 0, 0, 0, 0, 0, 0, 0, 0, 0, 0, 0, 0, 0, 0, 0, 0, 0, 0, 0, 0, 0, 0, 0, 0, 0, 0, 0, 0, 0, 0, 0, 0, 0, 0, 0, 0, 0, 0, 0, 0, 0, 0, 0, 0, 0, 0, 0, 0, 0, 0, 0, 0, 0, 0, 0, 0, 0, 0, 0, 0, 0, 0, 0, 0, 0, 0, 0, 0, 0, 0, 0, 0, 0, 0, 0, 0, 0, 0, 0, 0, 0, 0, 0, 0, 0, 0, 0, 0, 0, 0, 0, 0, 0, 0, 0, 0, 0, 0, 0, 0, 0, 0, 0, 0, 0, 0, 0, 0, 0, 0, 0, 0, 0, 0, 0, 0, 0, 0, 0, 0, 0, 0, 0, 0, 0, 0, 0, 0, 0, 0, 0, 0, 0, 0, 0, 0, 0, 0, 0, 0, 0, 0, 0, 0, 0, 0, 0, 0, 0, 0, 0, 0, 0, 0, 0, 0, 0, 0, 0, 0, 0, 0, 0, 0, 0, 0, 0, 0, 0, 0, 0, 0, 0, 0, 0, 0, 0, 0, 0, 0, 0, 0, 0, 0, 0, 0, 0, 0, 0, 0, 0, 0, 0, 0, 0, 0, 0, 0, 0, 0, 0, 0, 0, 0, 0, 0, 0, 0, 0, 0, 0, 0, 0, 0, 0, 0, 0, 0, 0, 0, 0, 0, 0, 0, 0, 0, 0, 0, 0, 0, 0, 0, 0, 0, 0, 0, 0, 0, 0, 0, 0, 0, 0, 0, 0, 0, 0, 0, 0, 0, 0, 0, 0, 0, 0, 0, 0, 0, 0, 0, 0, 0, 0, 0, 0, 0, 32, 31, 162, 21, 127, 31, 32, 31, 32, 32, 31, 32, 31, 32, 31, 32, 31, 32, 32, 31, 32, 31, 32, 31, 32, 31, 32, 32, 31, 32, 31, 32, 31, 32, 31, 32, 31, 32, 31, 32, 31, 32, 31, 32, 31, 32, 31, 32, 31, 32, 31, 32, 31, 32, 31, 32, 31, 32, 31, 32, 31, 32, 31, 32, 31, 164, 97, 21, 128, 32, 31, 32, 31, 31, 32, 31, 32, 31, 32, 31, 32, 31, 31, 32, 31, 32, 31, 32, 31, 32, 31, 31, 32, 31, 32, 31, 32, 31, 32, 31, 164, 132, 166, 15, 167, 167, 14, 15, 167, 133, 132, 166, 167, 14, 15, 167, 133, 132, 166, 167, 14, 15, 167, 133, 130, 31, 32, 31, 164, 97, 97, 21, 91, 16, 132, 166, 167, 14, 15, 16, 16, 132, 166, 167, 14, 15, 167, 133, 132, 166, 167, 14, 15, 167, 133, 132, 166, 167, 14, 15, 167, 133, 132, 166, 35, 129, 163, 35, 35, 35, 35, 35, 35, 35, 35, 35, 35, 35, 35, 35, 35, 35, 35, 103, 109, 113, 35, 35, 127, 32, 31, 32, 162, 101, 101, 21, 101, 99, 22, 23, 101, 101, 101, 35, 72, 72, 72, 72, 35, 35, 35, 35, 35, 35, 134, 26, 168, 35, 35, 35, 35, 35, 78, 78, 78, 78, 78, 72, 72, 129, 163, 72, 72, 137, 167, 171, 72, 72, 72, 72, 72, 72, 72, 72, 72, 72, 35, 104, 35, 114, 35, 35, 128, 31, 32, 31, 162, 101, 101, 21, 101, 99, 101, 101, 101, 101, 101, 101, 72, 72, 72, 72, 72, 35, 35, 35, 35, 35, 135, 25, 169, 35, 35, 35, 35, 35, 78, 78, 78, 78, 78, 72, 72, 22, 23, 72, 72, 136, 76, 170, 72, 72, 72, 72, 72, 72, 72, 72, 72, 72, 72, 104, 35, 114, 35, 35, 127, 32, 31, 32, 162, 101, 101, 21, 101, 99, 101, 101, 101, 101, 101, 101, 35, 35, 35, 35, 35, 35, 35, 35, 35, 35, 35, 35, 35, 35, 35, 35, 35, 35, 78, 78, 78, 78, 78, 72, 72, 72, 72, 72, 72, 125, 1, 159, 1, 1, 160, 72, 72, 72, 72, 72, 126, 1, 1, 119, 1, 120, 35, 35, 128, 31, 32, 31, 162, 101, 101, 21, 101, 99, 101, 101, 101, 101, 101, 101, 35, 35, 35, 35, 35, 35, 35, 35, 35, 35, 35, 35, 35, 35, 35, 35, 35, 35, 78, 78, 78, 78, 72, 72, 72, 72, 72, 72, 72, 14, 167, 133, 20, 14, 15, 72, 72, 72, 72, 72, 13, 14, 20, 132, 166, 15, 35, 35, 127, 32, 31, 32, 162, 81, 81, 21, 81, 99, 101, 101, 81, 81, 81, 81, 35, 35, 35, 35, 35, 35, 35, 35, 35, 35, 35, 35, 35, 35, 35, 35, 35, 35, 78, 78, 78, 78, 72, 72, 72, 72, 72, 72, 72, 72, 72, 72, 21, 72, 72, 72, 72, 72, 72, 72, 72, 72, 21, 35, 35, 35, 35, 35, 128, 31, 32, 31, 165, 1, 1, 2, 1, 1, 1, 1, 1, 1, 1, 1, 1, 160, 77, 87, 3, 4, 35, 87, 4, 3, 35, 87, 4, 3, 100, 100, 126, 1, 1, 1, 1, 1, 1, 1, 160, 72, 72, 72, 72, 72, 72, 72, 21, 72, 72, 72, 72, 72, 72, 72, 72, 72, 21, 35, 35, 35, 35, 35, 127, 32, 31, 32, 164, 14, 20, 167, 16, 14, 15, 132, 166, 130, 164, 16, 20, 16, 77, 87, 130, 164, 35, 35, 130, 164, 35, 35, 130, 164, 100, 100, 133, 14, 16, 130, 31, 32, 164, 15, 133, 35, 35, 35, 35, 35, 72, 72, 21, 72, 72, 72, 72, 72, 72, 72, 72, 72, 21, 35, 35, 35, 35, 35, 128, 31, 32, 31, 162, 97, 21, 97, 97, 97, 97, 22, 23, 127, 162, 35, 21, 77, 77, 35, 22, 23, 100, 35, 22, 23, 100, 35, 22, 23, 100, 100, 100, 97, 97, 128, 32, 31, 162, 35, 35, 35, 35, 35, 35, 35, 35, 1, 2, 1, 1, 1, 1, 1, 1, 1, 1, 1, 2, 1, 35, 35, 35, 35, 127, 32, 31, 32, 162, 97, 21, 97, 97, 97, 97, 97, 97, 129, 163, 35, 21, 35, 35, 35, 35, 100, 100, 35, 35, 100, 100, 35, 35, 35, 35, 100, 100, 97, 97, 127, 31, 32, 163, 35, 35, 35, 35, 35, 35, 35, 35, 13, 167, 133, 14, 14, 132, 20, 132, 166, 167, 133, 14, 15, 35, 35, 35, 35, 128, 32, 31, 32, 162, 97, 21, 97, 97, 137, 167, 171, 97, 127, 163, 35, 21, 35, 35, 35, 35, 100, 100, 35, 35, 100, 100, 35, 35, 35, 35, 100, 35, 35, 35, 128, 32, 31, 163, 35, 35, 35, 35, 35, 35, 35, 35, 35, 35, 35, 35, 35, 35, 21, 22, 23, 35, 35, 35, 35, 35, 35, 35, 35, 127, 31, 32, 31, 162, 97, 21, 97, 97, 136, 76, 170, 97, 129, 163, 35, 21, 35, 35, 35, 35, 100, 100, 35, 35, 100, 100, 35, 35, 35, 35, 100, 35, 35, 35, 127, 31, 32, 163, 35, 35, 35, 35, 35, 35, 35, 76, 76, 76, 35, 35, 35, 35, 21, 35, 35, 35, 35, 35, 35, 150, 55, 184, 35, 128, 32, 31, 32, 165, 1, 2, 1, 1, 125, 1, 159, 1, 131, 165, 1, 2, 1, 1, 1, 1, 1, 1, 1, 1, 1, 1, 1, 1, 1, 1, 1, 1, 1, 1, 131, 32, 31, 165, 160, 35, 35, 35, 35, 35, 35, 101, 101, 101, 35, 35, 35, 35, 21, 35, 35, 35, 35, 35, 35, 151, 56, 185, 35, 127, 31, 32, 31, 54, 54, 54, 54, 54, 54, 54, 54, 54, 54, 54, 53, 53, 54, 54, 53, 53, 54, 54, 53, 53, 54, 54, 53, 53, 53, 53, 54, 54, 54, 54, 54, 54, 54, 54, 31, 165, 35, 35, 35, 35, 35, 101, 101, 101, 101, 35, 35, 35, 21, 35, 35, 35, 35, 35, 35, 152, 59, 186, 35, 128, 32, 31, 32, 47, 48, 47, 48, 47, 47, 48, 47, 48, 47, 47, 48, 47, 48, 47, 47, 48, 47, 48, 47, 47, 48, 47, 48, 47, 48, 47, 47, 47, 48, 47, 48, 47, 47, 48, 32, 31, 165, 1, 1, 1, 1, 1, 1, 1, 1, 1, 1, 1, 2, 1, 1, 1, 1, 1, 1, 140, 42, 174, 1, 131, 31, 32, 31, 47, 48, 47, 48, 47, 47, 48, 47, 48, 47, 47, 48, 47, 48, 47, 47, 48, 47, 48, 47, 47, 48, 47, 48, 47, 47, 47, 47, 47, 48, 47, 47, 47, 48, 47, 31, 32, 31, 32, 31, 32, 31, 32, 31, 32, 31, 32, 31, 32, 31, 32, 31, 32, 31, 32, 31, 32, 31, 32, 31, 32, 32, 31, 32, 48, 47, 48, 47, 48, 48, 47, 48, 47, 48, 48, 47, 48, 47, 48, 48, 47, 48, 47, 48, 48, 47, 48, 47, 48, 48, 47, 48, 48, 47, 48, 48, 47, 47, 48, 32, 31, 32, 31, 32, 31, 32, 31, 32, 31, 32, 31, 32, 31, 32, 31, 32, 31, 32, 31, 32, 31, 32, 31, 32, 31, 31, 32, 31, 47, 48, 47, 48, 47, 47, 48, 47, 48, 47, 47, 48, 47, 48, 47, 47, 48, 47, 48, 47, 47, 48, 47, 48, 47, 47, 48, 47, 47, 48, 47, 47, 48, 48, 47, 31, 32, 31, 32, 31, 32, 31, 32, 31, 32, 31, 32, 31, 32, 31, 32, 31, 32, 31, 32, 31, 32, 31, 32, 31, 32, 32, 31, 32, 0, 0, 0, 0, 0, 0, 0, 0, 0, 0, 0, 0, 0, 0, 0, 0, 0, 0, 0, 0, 0, 0, 0, 0, 0, 0, 0, 0, 0, 0, 0, 0, 0, 0, 0, 0, 0, 0, 0, 0, 0, 0, 0, 0, 0, 0, 0, 0, 0, 0, 0, 0, 0, 0, 0, 0, 0, 0, 0, 0, 0, 0, 0, 0, 0, 0, 0, 0, 0, 0, 0, 0, 0, 0, 0, 0, 0, 0, 0, 0, 0, 0, 0, 0, 0, 0, 0, 0, 0, 0, 0, 0, 0, 0, 0, 0, 0, 0, 0, 0, 0, 0, 0, 0, 0, 0, 0, 0, 0, 0, 0, 0, 0, 0, 0, 0, 0, 0, 0, 0, 0, 0, 0, 0, 0, 0, 0, 0, 0, 0, 0, 0, 0, 0, 0, 0, 0, 0, 0, 0, 0, 0, 0, 0, 0, 0, 0, 0, 0, 0, 0, 0, 0, 0, 0, 0, 0, 0, 0, 0, 0, 0, 0, 0, 0, 0, 0, 0, 0, 0, 0, 0, 0, 0, 0, 0, 0, 0, 0, 0, 0, 0, 0, 0, 0, 0, 0, 0, 0, 0, 0, 0, 0, 0, 0, 0, 0, 0, 0, 0, 0, 0, 0, 0, 0, 0, 0, 0, 0, 0, 0, 0, 0, 0, 0, 0, 0, 0, 0, 0, 0, 0, 0, 0, 0, 0, 0, 0, 0, 0, 0, 0, 0, 0, 0, 0, 0, 0, 0, 0, 0, 0, 0, 0, 0, 0, 0, 0, 0, 0, 0, 0, 0, 0, 0, 0],
         "height":56,
         "id":1,
         "name":"Capa de patrones 1",
         "opacity":1,
         "type":"tilelayer",
         "visible":true,
         "width":64,
         "x":0,
         "y":0
        }],
 "nextlayerid":2,
 "nextobjectid":1,
 "orientation":"orthogonal",
 "renderorder":"right-down",
 "tiledversion":"1.4.3",
 "tileheight":16,
 "tilesets":[
        {
              "tilesheetSizeX": 32,
              "tilesheetSizeY": 6,
              "firstgid": 1,
              "source": "images/level-sheet-green.png"
        }],
 "tilewidth":16,
 "type":"map",
 "version":1.4,
 "width":64,
 "config_doc": "levels/config_escena2.json"
}