{ "compressionlevel":-1,
 "editorsettings":
    {
     "export":
        {
         "format":"json",
         "target":"Escena_2.json"
        }
    },
 "height":40,
 "infinite":false,
 "layers":[
        {
         "data":[31, 32, 31, 32, 31, 32, 31, 32, 31, 32, 31, 32, 31, 32, 31, 32, 31, 32, 31, 31, 31, 32, 31, 32, 31, 32, 31, 32, 31, 32, 31, 32, 0, 0, 0, 0, 0, 0, 0, 0, 0, 0, 0, 0, 0, 0, 0, 0, 0, 0, 0, 0, 0, 0, 0, 0, 0, 0, 0, 0, 0, 0, 0, 0, 31, 32, 31, 32, 31, 32, 31, 32, 31, 32, 31, 32, 32, 31, 32, 31, 32, 31, 32, 31, 32, 31, 32, 31, 32, 31, 32, 31, 32, 31, 32, 31, 0, 0, 0, 0, 0, 0, 0, 0, 0, 0, 0, 0, 0, 0, 0, 0, 0, 0, 0, 0, 0, 0, 0, 0, 0, 0, 0, 0, 0, 0, 0, 0, 164, 13, 14, 15, 167, 167, 132, 166, 13, 14, 15, 167, 167, 132, 166, 13, 14, 15, 167, 167, 132, 166, 14, 15, 15, 132, 31, 166, 130, 32, 31, 32, 0, 0, 0, 0, 0, 0, 0, 0, 0, 0, 0, 0, 0, 0, 0, 0, 0, 0, 0, 0, 0, 0, 0, 0, 0, 0, 0, 0, 0, 0, 0, 0, 163, 35, 35, 35, 35, 35, 35, 35, 35, 76, 76, 76, 76, 76, 76, 76, 76, 76, 76, 76, 76, 76, 76, 76, 76, 127, 31, 163, 76, 130, 32, 31, 0, 0, 0, 0, 0, 0, 0, 0, 0, 0, 0, 0, 0, 0, 0, 0, 0, 0, 0, 0, 0, 0, 0, 0, 0, 0, 0, 0, 0, 0, 0, 0, 162, 35, 35, 35, 35, 35, 35, 35, 35, 35, 35, 35, 35, 35, 35, 35, 35, 76, 76, 76, 76, 76, 76, 76, 76, 76, 15, 76, 76, 76, 130, 32, 0, 0, 0, 0, 0, 0, 0, 0, 0, 0, 0, 0, 0, 0, 0, 0, 0, 0, 0, 0, 0, 0, 0, 0, 0, 0, 0, 0, 0, 0, 0, 0, 163, 35, 35, 35, 35, 35, 35, 35, 35, 35, 35, 35, 35, 76, 76, 76, 76, 76, 76, 76, 76, 76, 76, 76, 76, 76, 76, 76, 76, 76, 76, 130, 0, 0, 0, 0, 0, 0, 0, 0, 0, 0, 0, 0, 0, 0, 0, 0, 0, 0, 0, 0, 0, 0, 0, 0, 0, 0, 0, 0, 0, 0, 0, 0, 165, 1, 1, 1, 1, 1, 1, 1, 1, 1, 160, 35, 35, 126, 1, 1, 1, 1, 1, 1, 1, 160, 76, 76, 76, 76, 76, 76, 76, 76, 76, 127, 0, 0, 0, 0, 0, 0, 0, 0, 0, 0, 0, 0, 0, 0, 0, 0, 0, 0, 0, 0, 0, 0, 0, 0, 0, 0, 0, 0, 0, 0, 0, 0, 31, 32, 31, 32, 31, 32, 31, 32, 31, 32, 31, 88, 35, 167, 133, 14, 133, 132, 166, 20, 14, 15, 88, 88, 88, 88, 88, 88, 88, 88, 88, 128, 0, 0, 0, 0, 0, 0, 0, 0, 0, 0, 0, 0, 0, 0, 0, 0, 0, 0, 0, 0, 0, 0, 0, 0, 0, 0, 0, 0, 0, 0, 0, 0, 31, 32, 31, 32, 31, 32, 31, 32, 31, 32, 32, 88, 35, 35, 35, 35, 88, 88, 88, 21, 88, 88, 88, 88, 88, 88, 88, 88, 88, 88, 88, 127, 0, 0, 0, 0, 0, 0, 0, 0, 0, 0, 0, 0, 0, 0, 0, 0, 0, 0, 0, 0, 0, 0, 0, 0, 0, 0, 0, 0, 0, 0, 0, 0, 31, 32, 31, 32, 31, 32, 31, 32, 31, 32, 31, 88, 35, 35, 35, 88, 88, 88, 88, 21, 88, 88, 88, 88, 88, 183, 183, 183, 183, 183, 87, 127, 0, 0, 0, 0, 0, 0, 0, 0, 0, 0, 0, 0, 0, 0, 0, 0, 0, 0, 0, 0, 0, 0, 0, 0, 0, 0, 0, 0, 0, 0, 0, 0, 31, 32, 31, 32, 31, 32, 31, 32, 31, 32, 164, 88, 88, 88, 88, 88, 88, 88, 126, 2, 1, 1, 1, 160, 88, 183, 183, 126, 1, 1, 1, 131, 0, 0, 0, 0, 0, 0, 0, 0, 0, 0, 0, 0, 0, 0, 0, 0, 0, 0, 0, 0, 0, 0, 0, 0, 0, 0, 0, 0, 0, 0, 0, 0, 164, 132, 166, 13, 14, 15, 167, 167, 132, 166, 98, 88, 88, 88, 88, 88, 88, 88, 130, 166, 133, 20, 132, 166, 88, 88, 183, 31, 32, 31, 32, 31, 0, 0, 0, 0, 0, 0, 0, 0, 0, 0, 0, 0, 0, 0, 0, 0, 0, 0, 0, 0, 0, 0, 0, 0, 0, 0, 0, 0, 0, 0, 0, 0, 162, 129, 163, 35, 35, 35, 35, 35, 35, 35, 35, 35, 88, 88, 88, 88, 88, 88, 22, 23, 88, 21, 183, 183, 183, 183, 183, 32, 31, 32, 31, 32, 0, 0, 0, 0, 0, 0, 0, 0, 0, 0, 0, 0, 0, 0, 0, 0, 0, 0, 0, 0, 0, 0, 0, 0, 0, 0, 0, 0, 0, 0, 0, 0, 163, 22, 23, 35, 35, 35, 35, 35, 35, 35, 35, 35, 98, 98, 88, 88, 88, 88, 88, 88, 88, 21, 183, 183, 183, 183, 183, 31, 32, 31, 32, 31, 0, 0, 0, 0, 0, 0, 0, 0, 0, 0, 0, 0, 0, 0, 0, 0, 0, 0, 0, 0, 0, 0, 0, 0, 0, 0, 0, 0, 0, 0, 0, 0, 162, 35, 35, 35, 1, 1, 1, 1, 1, 1, 1, 160, 183, 98, 88, 88, 88, 88, 88, 88, 88, 21, 183, 183, 183, 183, 183, 32, 31, 32, 31, 32, 0, 0, 0, 0, 0, 0, 0, 0, 0, 0, 0, 0, 0, 0, 0, 0, 0, 0, 0, 0, 0, 0, 0, 0, 0, 0, 0, 0, 0, 0, 0, 0, 163, 35, 35, 35, 35, 20, 14, 167, 15, 20, 14, 133, 183, 98, 88, 147, 67, 181, 88, 88, 88, 21, 183, 183, 183, 183, 183, 31, 32, 31, 32, 31, 0, 0, 0, 0, 0, 0, 0, 0, 0, 0, 0, 0, 0, 0, 0, 0, 0, 0, 0, 0, 0, 0, 0, 0, 0, 0, 0, 0, 0, 0, 0, 0, 162, 35, 35, 35, 35, 21, 35, 35, 35, 21, 35, 35, 183, 183, 88, 146, 66, 180, 88, 88, 88, 21, 183, 183, 183, 183, 183, 32, 31, 32, 31, 32, 0, 0, 0, 0, 0, 0, 0, 0, 0, 0, 0, 0, 0, 0, 0, 0, 0, 0, 0, 0, 0, 0, 0, 0, 0, 0, 0, 0, 0, 0, 0, 0, 163, 35, 35, 35, 35, 21, 35, 35, 35, 21, 35, 35, 183, 183, 183, 145, 79, 179, 88, 88, 88, 21, 183, 183, 183, 183, 183, 31, 32, 31, 32, 31, 0, 0, 0, 0, 0, 0, 0, 0, 0, 0, 0, 0, 0, 0, 0, 0, 0, 0, 0, 0, 0, 0, 0, 0, 0, 0, 0, 0, 0, 0, 0, 0, 165, 1, 1, 1, 1, 21, 1, 1, 1, 2, 1, 1, 1, 1, 1, 138, 1, 172, 1, 1, 1, 2, 1, 1, 1, 1, 1, 32, 31, 32, 31, 32, 0, 0, 0, 0, 0, 0, 0, 0, 0, 0, 0, 0, 0, 0, 0, 0, 0, 0, 0, 0, 0, 0, 0, 0, 0, 0, 0, 0, 0, 0, 0, 0, 31, 32, 31, 32, 31, 21, 31, 32, 31, 32, 31, 31, 32, 31, 32, 31, 32, 31, 32, 31, 32, 31, 32, 31, 32, 31, 32, 31, 32, 31, 32, 31, 0, 0, 0, 0, 0, 0, 0, 0, 0, 0, 0, 0, 0, 0, 0, 0, 0, 0, 0, 0, 0, 0, 0, 0, 0, 0, 0, 0, 0, 0, 0, 0, 32, 31, 32, 31, 32, 21, 32, 31, 32, 32, 31, 32, 31, 32, 31, 32, 31, 32, 32, 31, 32, 31, 32, 31, 32, 31, 32, 32, 31, 32, 31, 32, 31, 32, 31, 32, 31, 32, 31, 32, 31, 32, 31, 32, 31, 32, 31, 32, 31, 32, 31, 32, 31, 32, 31, 32, 31, 32, 31, 32, 31, 32, 31, 32, 31, 32, 31, 32, 31, 21, 31, 32, 31, 31, 32, 31, 32, 31, 32, 31, 32, 31, 31, 32, 31, 32, 31, 32, 31, 32, 31, 31, 32, 31, 32, 31, 32, 31, 32, 31, 164, 132, 166, 15, 167, 167, 14, 15, 167, 133, 132, 166, 167, 14, 15, 167, 133, 132, 166, 167, 14, 15, 167, 133, 130, 31, 32, 31, 164, 167, 14, 15, 167, 21, 132, 166, 167, 14, 15, 167, 133, 132, 166, 167, 14, 15, 167, 133, 132, 166, 167, 14, 15, 167, 133, 132, 166, 167, 14, 15, 167, 133, 132, 166, 35, 129, 163, 35, 35, 35, 35, 35, 35, 35, 35, 35, 35, 35, 35, 35, 35, 35, 35, 147, 67, 181, 35, 35, 127, 32, 31, 32, 162, 101, 101, 101, 101, 21, 101, 101, 101, 101, 101, 35, 72, 72, 72, 72, 35, 35, 35, 35, 35, 35, 134, 26, 168, 35, 35, 35, 35, 35, 78, 78, 78, 78, 78, 72, 72, 129, 163, 72, 72, 137, 167, 171, 72, 72, 72, 72, 72, 72, 72, 72, 72, 72, 35, 146, 66, 180, 35, 35, 128, 31, 32, 31, 162, 101, 101, 101, 101, 21, 101, 101, 101, 101, 101, 101, 72, 72, 72, 72, 72, 35, 35, 35, 35, 35, 135, 25, 169, 35, 35, 35, 35, 35, 78, 78, 78, 78, 78, 72, 72, 22, 23, 72, 72, 136, 76, 170, 72, 72, 72, 72, 72, 72, 72, 72, 72, 72, 72, 145, 79, 179, 35, 35, 127, 32, 31, 32, 162, 101, 101, 101, 101, 21, 101, 101, 101, 101, 101, 101, 35, 35, 35, 35, 35, 35, 35, 35, 35, 35, 35, 35, 35, 35, 35, 35, 35, 35, 78, 78, 78, 78, 78, 72, 72, 72, 72, 72, 72, 125, 1, 159, 1, 1, 160, 72, 72, 72, 72, 72, 126, 1, 1, 138, 1, 172, 35, 35, 128, 31, 32, 31, 162, 101, 101, 101, 101, 21, 101, 101, 101, 101, 101, 101, 35, 35, 35, 35, 35, 35, 35, 35, 35, 35, 35, 35, 35, 35, 35, 35, 35, 35, 78, 78, 78, 78, 72, 72, 72, 72, 72, 72, 72, 14, 167, 133, 20, 14, 15, 72, 72, 72, 72, 72, 13, 14, 20, 132, 166, 15, 35, 35, 127, 32, 31, 32, 162, 81, 81, 81, 81, 21, 101, 101, 81, 81, 81, 81, 35, 35, 35, 35, 35, 35, 35, 35, 35, 35, 35, 35, 35, 35, 35, 35, 35, 35, 78, 78, 78, 78, 72, 72, 72, 72, 72, 72, 72, 72, 72, 72, 21, 72, 72, 72, 72, 72, 72, 72, 72, 72, 21, 35, 35, 35, 35, 35, 128, 31, 32, 31, 165, 1, 1, 1, 1, 2, 1, 1, 1, 1, 160, 87, 87, 4, 4, 87, 87, 4, 4, 87, 87, 4, 4, 87, 87, 126, 1, 1, 1, 1, 1, 1, 1, 1, 1, 1, 160, 72, 72, 72, 72, 72, 72, 72, 21, 72, 72, 72, 72, 72, 72, 72, 72, 72, 21, 35, 35, 35, 35, 35, 127, 32, 31, 32, 162, 14, 20, 167, 133, 14, 15, 132, 166, 130, 164, 87, 87, 130, 164, 87, 87, 130, 164, 87, 87, 130, 164, 87, 87, 17, 17, 130, 164, 16, 16, 16, 16, 130, 164, 15, 133, 35, 35, 35, 35, 35, 72, 72, 21, 72, 72, 72, 72, 72, 72, 72, 72, 72, 21, 35, 35, 35, 35, 35, 128, 31, 32, 31, 162, 97, 21, 97, 97, 97, 97, 22, 23, 127, 162, 35, 35, 127, 162, 35, 35, 127, 162, 35, 35, 127, 162, 35, 35, 35, 35, 127, 162, 97, 97, 97, 97, 127, 162, 35, 35, 35, 35, 35, 35, 35, 35, 1, 2, 1, 1, 1, 1, 1, 1, 1, 1, 1, 2, 1, 35, 35, 35, 35, 127, 32, 31, 32, 162, 97, 21, 97, 97, 97, 97, 97, 97, 129, 163, 35, 35, 129, 163, 35, 35, 129, 163, 35, 35, 129, 163, 35, 35, 35, 35, 129, 163, 97, 97, 97, 97, 129, 163, 35, 35, 35, 35, 35, 35, 35, 35, 13, 167, 133, 14, 14, 132, 20, 132, 166, 167, 133, 14, 15, 35, 35, 35, 35, 128, 32, 31, 32, 162, 97, 21, 97, 97, 137, 167, 171, 97, 127, 163, 35, 35, 127, 163, 35, 35, 127, 163, 35, 35, 127, 163, 35, 35, 35, 35, 127, 163, 97, 97, 97, 97, 127, 163, 35, 35, 35, 35, 35, 35, 35, 35, 35, 35, 35, 35, 35, 35, 21, 22, 23, 35, 35, 35, 35, 35, 35, 35, 35, 127, 31, 32, 31, 162, 97, 21, 97, 97, 136, 76, 170, 97, 129, 163, 35, 35, 129, 163, 35, 35, 129, 163, 35, 35, 129, 163, 35, 35, 35, 35, 129, 163, 97, 97, 97, 97, 129, 163, 35, 35, 35, 35, 35, 35, 35, 76, 76, 76, 35, 35, 35, 35, 21, 35, 35, 35, 35, 35, 150, 55, 184, 35, 35, 128, 32, 31, 32, 165, 1, 2, 1, 1, 125, 1, 159, 1, 131, 165, 35, 35, 131, 165, 35, 35, 131, 165, 35, 35, 131, 165, 35, 35, 35, 35, 131, 165, 97, 97, 97, 97, 131, 165, 160, 35, 35, 35, 35, 35, 35, 101, 101, 101, 35, 35, 35, 35, 21, 35, 35, 35, 35, 35, 152, 59, 186, 35, 35, 127, 31, 32, 31, 54, 54, 54, 54, 54, 54, 54, 54, 54, 54, 54, 47, 48, 54, 54, 47, 48, 54, 54, 47, 48, 54, 54, 47, 48, 47, 48, 54, 54, 47, 48, 47, 48, 54, 54, 31, 165, 35, 35, 35, 35, 35, 101, 101, 101, 101, 35, 35, 35, 21, 35, 35, 35, 35, 35, 152, 59, 186, 35, 35, 128, 32, 31, 32, 47, 48, 47, 48, 47, 47, 48, 47, 48, 47, 47, 48, 47, 48, 47, 47, 48, 47, 48, 47, 47, 48, 47, 48, 47, 48, 47, 47, 47, 48, 47, 48, 47, 47, 48, 32, 31, 165, 1, 1, 1, 1, 1, 1, 1, 1, 1, 1, 1, 2, 1, 1, 1, 1, 1, 140, 42, 174, 1, 1, 131, 31, 32, 31, 47, 48, 47, 48, 47, 47, 48, 47, 48, 47, 47, 48, 47, 48, 47, 47, 48, 47, 48, 47, 47, 48, 47, 48, 47, 47, 47, 47, 47, 48, 47, 47, 47, 48, 47, 31, 32, 31, 32, 31, 32, 31, 32, 31, 32, 31, 32, 31, 32, 31, 32, 31, 32, 31, 32, 31, 32, 31, 32, 31, 32, 32, 31, 32, 48, 47, 48, 47, 48, 48, 47, 48, 47, 48, 48, 47, 48, 47, 48, 48, 47, 48, 47, 48, 48, 47, 48, 47, 48, 48, 47, 48, 48, 47, 48, 48, 47, 47, 48, 32, 31, 32, 31, 32, 31, 32, 31, 32, 31, 32, 31, 32, 31, 32, 31, 32, 31, 32, 31, 32, 31, 32, 31, 32, 31, 31, 32, 31, 47, 48, 47, 48, 47, 47, 48, 47, 48, 47, 47, 48, 47, 48, 47, 47, 48, 47, 48, 47, 47, 48, 47, 48, 47, 47, 48, 47, 47, 48, 47, 47, 48, 48, 47, 31, 32, 31, 32, 31, 32, 31, 32, 31, 32, 31, 32, 31, 32, 31, 32, 31, 32, 31, 32, 31, 32, 31, 32, 31, 32, 32, 31, 32],
         "height":40,
         "id":1,
         "name":"Capa de patrones 1",
         "opacity":1,
         "type":"tilelayer",
         "visible":true,
         "width":64,
         "x":0,
         "y":0
        }],
 "nextlayerid":2,
 "nextobjectid":1,
 "orientation":"orthogonal",
 "renderorder":"right-down",
 "tiledversion":"1.4.3",
 "tileheight":16,
 "tilesets":[
        {
         "tilesheetSizeX": 32,
         "tilesheetSizeY": 6,
         "firstgid": 1,
         "source": "images/level-sheet.png"
        }],
 "tilewidth":16,
 "type":"map",
 "version":1.4,
 "width":64
}