{
    "compressionlevel": -1,
    "height": 20,
    "infinite": false,
    "layers": [
        {
            "data": [ 31, 32, 31, 32, 31, 32, 31, 32, 31, 32, 31, 32, 31, 32, 31, 32, 31, 32, 31, 32, 31, 32, 31, 32, 31, 32, 31, 32, 31, 32, 31, 32, 164, 14, 15, 132, 166, 14, 15, 132, 166, 14, 15, 132, 166, 14, 15, 132, 166, 14, 15, 132, 166, 14, 15, 132, 166, 14, 15, 132, 166, 14, 15, 132, 166, 15, 14, 132, 166, 15, 14, 132, 166, 14, 15, 132, 166, 14, 15, 132, 166, 14, 15, 132, 166, 14, 15, 132, 166, 14, 15, 132, 166, 14, 15, 130, 32, 31, 32, 31, 32, 31, 32, 31, 32, 31, 32, 31, 32, 31, 32, 31, 32, 31, 32, 31, 32, 31, 32, 31, 32, 31, 32, 31, 32, 31, 32, 31, 161, 35, 35, 35, 35, 35, 35, 35, 35, 35, 35, 35, 35, 35, 35, 35, 134, 133, 168, 35, 35, 35, 35, 35, 35, 35, 35, 35, 35, 35, 35, 35, 35, 35, 35, 22, 23, 35, 35, 35, 35, 35, 35, 35, 35, 35, 35, 35, 35, 35, 35, 35, 35, 35, 35, 35, 35, 35, 35, 22, 23, 35, 35, 128, 31, 32, 31, 32, 31, 32, 31, 32, 31, 32, 31, 32, 31, 32, 31, 32, 31, 32, 31, 32, 31, 32, 31, 32, 31, 32, 31, 32, 31, 32, 31, 32, 162, 35, 35, 35, 35, 35, 35, 35, 35, 35, 35, 35, 35, 35, 35, 35, 35, 35, 35, 35, 35, 35, 35, 35, 35, 35, 35, 35, 35, 35, 35, 35, 35, 35, 35, 35, 35, 35, 35, 35, 35, 35, 35, 35, 35, 35, 35, 35, 35, 147, 67, 181, 35, 35, 35, 35, 35, 35, 35, 35, 35, 35, 35, 129, 32, 31, 32, 31, 32, 31, 32, 31, 32, 31, 32, 31, 32, 31, 32, 31, 32, 31, 32, 31, 32, 31, 32, 31, 32, 31, 32, 31, 32, 31, 32, 31, 161, 35, 35, 35, 35, 35, 35, 35, 35, 35, 35, 35, 35, 35, 35, 35, 35, 35, 35, 35, 35, 35, 35, 35, 137, 167, 171, 35, 35, 35, 35, 35, 35, 35, 35, 35, 35, 35, 35, 35, 35, 35, 35, 35, 35, 35, 35, 35, 35, 146, 66, 180, 35, 35, 35, 35, 35, 35, 35, 35, 35, 35, 35, 127, 164, 14, 15, 132, 166, 14, 15, 132, 166, 14, 15, 132, 166, 14, 15, 132, 166, 15, 14, 132, 166, 15, 14, 130, 164, 14, 15, 132, 166, 14, 15, 132, 35, 35, 35, 35, 35, 35, 35, 35, 35, 35, 35, 35, 35, 35, 35, 35, 35, 35, 35, 35, 35, 35, 35, 35, 136, 35, 170, 35, 35, 35, 35, 35, 35, 35, 35, 35, 35, 35, 35, 35, 35, 35, 35, 35, 35, 35, 35, 35, 35, 145, 35, 179, 35, 35, 35, 35, 35, 35, 35, 35, 35, 35, 35, 129, 161, 35, 35, 35, 35, 35, 35, 35, 35, 35, 35, 35, 35, 35, 35, 22, 23, 35, 35, 35, 35, 35, 35, 127, 161, 35, 35, 35, 35, 35, 35, 35, 35, 35, 35, 35, 35, 35, 35, 35, 126, 1, 1, 1, 1, 1, 1, 1, 1, 1, 1, 1, 1, 1, 1, 1, 125, 1, 159, 1, 1, 1, 1, 1, 1, 1, 1, 1, 1, 1, 1, 1, 1, 1, 1, 1, 160, 35, 35, 35, 126, 138, 1, 172, 1, 1, 1, 1, 1, 1, 1, 1, 1, 1, 1, 131, 162, 35, 35, 35, 35, 35, 35, 35, 35, 35, 35, 35, 35, 35, 35, 35, 35, 35, 35, 35, 35, 35, 35, 128, 162, 35, 35, 35, 35, 35, 35, 35, 35, 35, 35, 35, 35, 35, 35, 35, 166, 14, 20, 132, 166, 14, 15, 132, 166, 14, 15, 132, 166, 15, 14, 132, 166, 15, 14, 132, 166, 15, 14, 132, 166, 14, 15, 132, 166, 14, 15, 132, 166, 15, 20, 13, 14, 35, 35, 35, 166, 14, 15, 132, 166, 20, 15, 132, 166, 14, 15, 132, 166, 20, 15, 130, 161, 35, 35, 35, 35, 35, 35, 35, 137, 167, 171, 35, 35, 35, 35, 35, 35, 35, 35, 35, 35, 35, 35, 127, 161, 35, 35, 35, 35, 35, 35, 35, 35, 35, 35, 35, 35, 35, 35, 35, 35, 35, 21, 35, 35, 35, 35, 35, 35, 35, 35, 35, 35, 35, 35, 35, 35, 35, 35, 35, 35, 35, 35, 35, 35, 35, 35, 35, 35, 35, 35, 35, 35, 35, 21, 35, 35, 35, 35, 35, 35, 35, 35, 35, 35, 21, 35, 22, 23, 35, 35, 35, 35, 21, 35, 129, 161, 35, 35, 35, 35, 35, 35, 35, 136, 35, 170, 35, 35, 35, 35, 35, 35, 35, 35, 35, 35, 35, 35, 35, 35, 35, 35, 35, 35, 35, 35, 35, 35, 35, 35, 35, 35, 35, 35, 35, 35, 35, 21, 35, 35, 35, 35, 35, 35, 35, 35, 35, 35, 35, 35, 35, 35, 35, 35, 35, 35, 35, 35, 35, 35, 35, 35, 35, 35, 35, 35, 35, 35, 35, 21, 35, 35, 35, 35, 35, 35, 35, 35, 35, 35, 21, 35, 35, 35, 35, 35, 35, 35, 21, 35, 127, 162, 35, 35, 126, 1, 1, 1, 1, 125, 1, 159, 1, 1, 1, 1, 1, 1, 1, 1, 1, 160, 35, 35, 35, 35, 35, 35, 126, 1, 1, 1, 1, 1, 1, 1, 1, 1, 1, 1, 1, 1, 1, 2, 160, 3, 4, 4, 4, 4, 4, 4, 4, 4, 4, 4, 4, 4, 4, 4, 3, 126, 1, 1, 1, 1, 1, 1, 1, 1, 1, 1, 1, 1, 1, 2, 1, 1, 1, 1, 160, 35, 35, 35, 35, 35, 21, 35, 35, 137, 167, 171, 35, 35, 21, 35, 128, 161, 35, 35, 14, 13, 20, 15, 132, 166, 15, 14, 132, 166, 15, 14, 132, 166, 15, 20, 13, 14, 35, 35, 35, 35, 35, 35, 14, 13, 20, 15, 130, 164, 14, 15, 132, 166, 14, 15, 132, 166, 14, 15, 133, 16, 17, 17, 17, 17, 17, 17, 17, 17, 17, 17, 17, 17, 17, 17, 16, 167, 14, 15, 132, 164, 14, 15, 132, 166, 14, 15, 132, 166, 15, 14, 132, 166, 20, 15, 132, 35, 35, 35, 35, 35, 21, 35, 35, 136, 35, 170, 35, 35, 21, 35, 129, 161, 35, 35, 35, 35, 21, 35, 22, 23, 35, 35, 35, 35, 35, 35, 35, 35, 35, 21, 35, 35, 35, 35, 35, 35, 35, 35, 35, 35, 21, 35, 128, 161, 35, 35, 35, 35, 35, 35, 35, 35, 35, 35, 35, 35, 35, 35, 35, 35, 35, 35, 35, 35, 35, 35, 35, 35, 35, 35, 35, 35, 35, 35, 35, 161, 35, 35, 35, 35, 35, 35, 35, 35, 35, 35, 35, 35, 21, 35, 35, 35, 35, 35, 126, 1, 2, 1, 1, 125, 1, 159, 1, 1, 2, 1, 131, 162, 35, 35, 35, 35, 21, 35, 35, 35, 35, 35, 35, 35, 35, 35, 35, 35, 35, 21, 35, 35, 35, 35, 35, 35, 35, 35, 35, 35, 21, 35, 127, 161, 35, 35, 35, 35, 35, 35, 35, 35, 35, 35, 35, 35, 35, 35, 35, 35, 35, 35, 35, 35, 35, 35, 35, 35, 35, 35, 35, 35, 35, 35, 35, 161, 35, 35, 35, 35, 35, 35, 35, 35, 35, 35, 35, 35, 21, 35, 35, 35, 35, 35, 14, 13, 14, 15, 132, 166, 15, 20, 132, 166, 15, 14, 127, 161, 35, 35, 35, 35, 21, 35, 35, 35, 35, 137, 167, 171, 35, 35, 35, 35, 35, 21, 35, 35, 35, 35, 35, 35, 35, 35, 35, 35, 21, 35, 128, 162, 35, 35, 35, 35, 35, 35, 35, 35, 35, 35, 35, 35, 35, 35, 35, 35, 35, 35, 35, 35, 35, 35, 35, 35, 35, 35, 35, 35, 35, 35, 35, 161, 35, 35, 35, 35, 35, 35, 35, 35, 35, 35, 35, 35, 21, 35, 35, 35, 35, 35, 35, 35, 35, 35, 35, 35, 35, 21, 35, 35, 35, 35, 128, 161, 35, 35, 35, 35, 21, 35, 35, 35, 35, 136, 35, 170, 35, 35, 35, 35, 35, 21, 35, 35, 35, 35, 35, 35, 35, 35, 35, 35, 21, 35, 127, 161, 35, 35, 35, 35, 35, 35, 35, 35, 35, 35, 35, 35, 35, 35, 35, 35, 35, 35, 35, 35, 35, 35, 35, 35, 35, 35, 35, 35, 35, 35, 35, 162, 35, 35, 35, 35, 35, 35, 35, 35, 35, 35, 35, 35, 21, 35, 35, 35, 35, 35, 35, 35, 35, 35, 35, 35, 35, 21, 35, 35, 35, 35, 129, 165, 1, 1, 1, 1, 2, 1, 1, 1, 1, 125, 1, 159, 1, 1, 1, 1, 1, 2, 1, 1, 1, 1, 1, 1, 1, 1, 1, 1, 2, 1, 131, 161, 35, 35, 35, 35, 35, 35, 35, 35, 35, 35, 35, 35, 35, 35, 35, 35, 35, 35, 35, 35, 35, 35, 35, 35, 35, 35, 35, 35, 35, 35, 35, 165, 1, 1, 1, 1, 1, 1, 1, 1, 1, 1, 1, 1, 2, 1, 1, 1, 1, 1, 1, 1, 1, 1, 1, 1, 1, 2, 1, 1, 1, 1, 131, 31, 32, 31, 32, 31, 32, 31, 32, 31, 32, 31, 32, 31, 32, 31, 32, 31, 32, 31, 32, 31, 32, 31, 32, 31, 32, 31, 32, 31, 32, 31, 32, 47, 48, 47, 48, 47, 48, 47, 48, 47, 48, 47, 48, 47, 48, 47, 48, 47, 48, 47, 48, 47, 48, 47, 48, 47, 48, 47, 48, 47, 48, 47, 48, 31, 32, 31, 32, 31, 32, 31, 32, 31, 32, 31, 32, 31, 32, 31, 32, 31, 32, 31, 32, 31, 32, 31, 32, 31, 32, 31, 32, 31, 32, 31, 32, 32, 31, 32, 31, 32, 31, 32, 31, 32, 31, 32, 31, 32, 31, 32, 31, 32, 31, 32, 31, 32, 31, 32, 31, 32, 31, 32, 31, 32, 31, 32, 31, 48, 47, 48, 47, 48, 47, 48, 47, 48, 47, 48, 47, 48, 47, 48, 47, 48, 47, 48, 47, 48, 47, 48, 47, 48, 47, 48, 47, 48, 47, 48, 47, 32, 31, 32, 31, 32, 31, 32, 31, 32, 31, 32, 31, 32, 31, 32, 31, 32, 31, 32, 31, 32, 31, 32, 31, 32, 31, 32, 31, 32, 31, 32, 31, 31, 32, 31, 32, 31, 32, 31, 32, 31, 32, 31, 32, 31, 32, 31, 32, 31, 32, 31, 32, 31, 32, 31, 32, 31, 32, 31, 32, 31, 32, 31, 32, 47, 48, 47, 48, 47, 48, 47, 48, 47, 48, 47, 48, 47, 48, 47, 48, 47, 48, 47, 48, 47, 48, 47, 48, 47, 48, 47, 48, 47, 48, 47, 48, 31, 32, 31, 32, 31, 32, 31, 32, 31, 32, 31, 32, 31, 32, 31, 32, 31, 32, 31, 32, 31, 32, 31, 32, 31, 32, 31, 32, 31, 32, 31, 32, 32, 31, 32, 31, 32, 31, 32, 31, 32, 31, 32, 31, 32, 31, 32, 31, 32, 31, 32, 31, 32, 31, 32, 31, 32, 31, 32, 31, 32, 31, 32, 31, 48, 47, 48, 47, 48, 47, 48, 47, 48, 47, 48, 47, 48, 47, 48, 47, 48, 47, 48, 47, 48, 47, 48, 47, 48, 47, 48, 47, 48, 47, 48, 47, 32, 31, 32, 31, 32, 31, 32, 31, 32, 31, 32, 31, 32, 31, 32, 31, 32, 31, 32, 31, 32, 31, 32, 31, 32, 31, 32, 31, 32, 31, 32, 31 ],
            "height": 20,
            "id": 1,
            "name": "Capa de patrones 1",
            "opacity": 1,
            "type": "tilelayer",
            "visible": true,
            "width": 96,
            "x": 0,
            "y": 0
        }
    ],
    "nextlayerid": 2,
    "nextobjectid": 1,
    "orientation": "orthogonal",
    "renderorder": "right-down",
    "tiledversion": "1.4.3",
    "tileheight": 16,
    "tilesets": [
        {
            "tilesheetSizeX": 32,
            "tilesheetSizeY": 6,
            "firstgid": 1,
            "source": "images/level-sheet.png"
        }
    ],
    "tilewidth": 16,
    "type": "map",
    "version": 1.4,
    "width": 96
}